Node #,Packet #,TX ID,Temp,Light,Time,dT,RSSI,Humidity,Extrnl
1,483,---,69.7,233,00:40:41,00:13,0.49,39,1102
1,485,---,69.7,240,00:40:54,00:13,0.46,38,1102
1,487,---,69.7,237,00:41:07,00:13,0.49,38,1102
1,489,242,69.7,240,00:41:19,00:12,0.49,38,1102
1,491,242,69.6,237,00:41:31,00:12,0.49,39,1102
1,493,242,69.6,237,00:41:43,00:12,0.49,38,1102
1,495,242,69.6,237,00:41:55,00:12,0.46,38,1102
1,497,---,69.6,240,00:42:08,00:13,0.49,39,1102
1,499,242,69.6,233,00:42:20,00:12,0.46,39,1102
1,501,242,69.6,237,00:42:32,00:12,0.49,39,1102
1,503,---,69.6,240,00:42:44,00:12,0.49,39,1102
1,505,---,69.6,240,00:42:56,00:12,0.43,38,1102
1,507,---,69.6,233,00:43:09,00:13,0.46,38,1102
1,509,242,69.6,233,00:43:22,00:13,0.49,38,1102
1,511,242,69.6,237,00:43:34,00:12,0.49,39,1102
1,512,242,69.6,240,00:43:45,00:11,0.46,38,1102
1,514,242,69.6,233,00:43:57,00:11,0.49,39,1102
1,516,---,69.6,240,00:44:10,00:13,0.49,39,1102
1,519,---,69.4,240,00:44:24,00:14,0.49,38,1102
1,521,---,69.4,233,00:44:37,00:13,0.37,38,1102
1,523,242,69.4,240,00:44:54,00:17,0.49,39,1102
2,482,242,71.6,262,00:40:35,00:13,0.40,36,1689
2,484,---,71.6,254,00:40:46,00:11,0.37,35,1680
2,486,242,71.6,254,00:41:01,00:15,0.37,36,1683
2,488,242,71.4,261,00:41:12,00:11,0.34,36,1683
2,490,242,71.2,255,00:41:26,00:14,0.40,36,1692
2,492,---,71.2,261,00:41:39,00:13,0.40,36,1684
2,494,---,71.2,262,00:41:53,00:14,0.43,36,1689
2,496,242,71.2,261,00:42:06,00:13,0.40,36,1684
2,498,242,71.0,261,00:42:18,00:12,0.40,36,1680
2,500,242,71.0,258,00:42:31,00:13,0.40,39,1687
2,502,242,70.9,259,00:42:43,00:12,0.43,35,1692
2,504,242,70.9,262,00:42:54,00:11,0.46,35,1692
2,506,---,70.7,262,00:43:06,00:12,0.43,36,1689
2,508,---,70.9,250,00:43:20,00:14,0.40,36,1683
2,510,---,70.7,258,00:43:33,00:13,0.40,36,1683
2,513,242,70.7,261,00:43:46,00:13,0.40,37,1680
2,515,---,70.5,259,00:43:58,00:12,0.46,37,1692
2,517,242,70.5,251,00:44:10,00:12,0.43,37,1692
2,518,---,70.5,255,00:44:23,00:13,0.40,37,1692
2,520,---,70.5,255,00:44:37,00:14,0.43,39,1695
2,522,---,70.5,258,00:44:50,00:13,0.40,37,1683
