Node #,Packet #,TX ID,Temp,Light,Time,dT,RSSI,Humidity,Extrnl
1,9379,242,71.0,141,03:11:28,00:02,2.08,--,1528
1,9382,242,70.9,141,03:11:32,00:04,2.08,--,1540
1,9384,242,70.9,141,03:11:35,00:02,2.33,--,1540
1,9386,242,70.9,141,03:11:37,00:02,2.08,--,1548
1,9388,---,70.9,141,03:11:39,00:02,1.74,--,1543
1,9390,---,70.9,141,03:11:42,00:03,2.22,--,1522
1,9393,---,70.9,145,03:11:45,00:03,2.48,--,1525
1,9395,242,70.9,141,03:11:48,00:03,2.22,--,1528
1,9397,242,70.9,145,03:11:50,00:02,2.22,--,1543
1,9399,242,70.9,141,03:11:52,00:02,2.22,--,1551
1,9401,242,70.9,141,03:11:54,00:02,2.22,--,1548
1,9403,242,70.9,141,03:11:57,00:03,2.33,--,1537
1,9405,242,70.9,141,03:11:59,00:02,2.08,--,1548
1,9407,242,70.9,138,03:12:01,00:02,2.08,--,1543
1,9410,242,70.7,141,03:12:04,00:03,2.33,--,1543
1,9412,242,70.7,141,03:12:06,00:02,2.22,--,1534
1,9414,---,70.9,141,03:12:08,00:02,2.22,--,1548
1,9416,---,70.9,141,03:12:11,00:02,2.22,--,1528
1,9418,---,70.7,145,03:12:14,00:03,2.22,--,1534
1,9420,---,70.7,141,03:12:16,00:02,2.22,--,1537
1,9422,242,70.7,141,03:12:19,00:03,1.97,--,1528
1,9424,242,70.7,141,03:12:21,00:02,2.08,--,1551
1,9426,242,70.7,141,03:12:23,00:02,2.22,--,1554
1,9428,242,70.7,141,03:12:25,00:02,2.48,--,1537
1,9430,242,70.7,141,03:12:27,00:02,2.08,--,1540
1,9432,---,70.7,141,03:12:30,00:02,2.22,--,1531
1,9434,242,70.7,141,03:12:33,00:03,2.22,--,1537
1,9437,242,70.7,141,03:12:35,00:02,2.08,--,1531
1,9439,---,70.7,141,03:12:37,00:02,2.22,--,1551
1,9441,---,70.7,145,03:12:40,00:03,0.09,--,1528
1,9444,242,70.7,141,03:12:42,00:02,2.33,--,1528
1,9446,242,70.7,141,03:12:45,00:03,2.48,--,1540
1,9448,---,70.5,145,03:12:47,00:02,2.22,--,1540
1,9450,242,70.5,141,03:12:50,00:03,2.22,--,1534
1,9452,242,70.5,145,03:12:52,00:02,2.33,--,1554
1,9454,242,70.5,141,03:12:54,00:02,2.33,--,1537
1,9458,242,70.5,145,03:12:59,00:05,1.97,--,1543
1,9460,---,70.5,141,03:13:01,00:02,2.33,--,1554
1,9462,242,70.5,145,03:13:03,00:02,2.33,--,1534
1,9464,242,70.5,141,03:13:06,00:02,2.22,--,1528
1,9466,242,70.5,141,03:13:09,00:03,2.08,--,1537
1,9469,---,70.5,141,03:13:11,00:02,0.12,--,1548
1,9471,---,70.5,145,03:13:13,00:02,2.33,--,1531
1,9473,242,70.5,141,03:13:16,00:03,2.33,--,1537
1,9475,242,70.5,141,03:13:18,00:02,1.97,--,1546
1,9477,---,70.5,141,03:13:21,00:03,2.48,--,1543
1,9479,242,70.5,145,03:13:23,00:02,2.33,--,1540
1,9481,---,70.5,141,03:13:25,00:02,2.22,--,1546
1,9483,---,70.5,141,03:13:28,00:03,2.08,--,1525
1,9486,242,70.5,141,03:13:31,00:03,2.08,--,1525
1,9488,---,70.5,138,03:13:33,00:02,2.33,--,1546
1,9490,242,70.5,141,03:13:36,00:03,2.22,--,1525
1,9492,---,70.5,145,03:13:38,00:02,2.33,--,1554
1,9495,242,70.5,145,03:13:41,00:03,2.33,--,1537
1,9497,---,70.5,145,03:13:43,00:02,2.33,--,1557
1,9499,---,70.5,141,03:13:46,00:03,2.48,--,1528
1,9501,242,70.5,141,03:13:48,00:02,2.22,--,1534
1,9504,242,70.5,141,03:13:51,00:03,2.22,--,1534
1,9506,---,70.5,141,03:13:53,00:02,2.22,--,1548
1,9508,---,70.5,145,03:13:56,00:03,2.22,--,1546
1,9510,242,70.5,141,03:13:58,00:02,2.22,--,1531
1,9512,242,70.3,141,03:14:01,00:03,2.22,--,1543
1,9514,242,70.5,141,03:14:03,00:02,2.08,--,1561
1,9516,---,70.3,141,03:14:06,00:03,2.22,--,1525
1,9518,---,70.5,138,03:14:09,00:03,2.33,--,1537
1,9521,---,70.3,138,03:14:11,00:02,2.08,--,1528
1,9523,242,70.3,145,03:14:14,00:03,2.08,--,1534
1,9525,---,70.3,141,03:14:17,00:03,2.08,--,1522
1,9528,---,70.3,141,03:14:20,00:03,1.97,--,1537
1,9530,242,70.3,141,03:14:22,00:02,2.08,--,1531
1,9532,242,70.3,141,03:14:25,00:02,2.08,--,1534
1,9535,242,70.3,145,03:14:28,00:03,2.22,--,1531
1,9537,242,70.3,145,03:14:31,00:03,2.08,--,1546
1,9539,---,70.3,145,03:14:33,00:02,0.07,--,1546
1,9541,242,70.3,141,03:14:36,00:03,2.08,--,1525
1,9543,242,70.3,141,03:14:38,00:02,2.22,--,1543
1,9545,---,70.3,138,03:14:40,00:02,0.43,--,1557
1,9547,242,70.3,138,03:14:43,00:02,2.48,--,1543
1,9549,242,70.3,141,03:14:45,00:02,2.33,--,1557
1,9551,---,70.3,145,03:14:47,00:02,2.48,--,1557
1,9553,242,70.3,138,03:14:50,00:03,2.33,--,1537
1,9555,---,70.3,141,03:14:52,00:02,2.08,--,1546
1,9558,242,70.3,141,03:14:55,00:03,2.33,--,1537
1,9560,242,70.3,141,03:14:57,00:02,2.08,--,1551
1,9562,242,70.3,141,03:15:00,00:03,2.22,--,1543
1,9564,242,70.3,141,03:15:02,00:02,2.22,--,1548
1,9567,---,70.3,145,03:15:05,00:03,2.33,--,1540
1,9569,242,70.3,141,03:15:07,00:02,2.48,--,1531
1,9571,---,70.3,141,03:15:10,00:02,2.33,--,1543
1,9573,---,70.3,138,03:15:13,00:03,1.97,--,1537
1,9576,---,70.3,141,03:15:15,00:02,0.22,--,1534
1,9578,---,70.3,138,03:15:18,00:03,2.33,--,1537
1,9580,---,70.3,141,03:15:20,00:02,2.08,--,1534
1,9582,242,70.3,141,03:15:23,00:03,2.33,--,1537
1,9584,242,70.3,141,03:15:26,00:03,2.22,--,1537
1,9586,242,70.3,138,03:15:28,00:02,1.97,--,1557
1,9589,242,70.3,141,03:15:30,00:02,2.22,--,1546
1,9591,---,70.3,141,03:15:33,00:03,2.22,--,1528
1,9593,242,70.3,145,03:15:35,00:02,2.22,--,1543
1,9595,---,70.3,145,03:15:38,00:03,2.08,--,1548
1,9598,242,70.3,141,03:15:40,00:02,1.97,--,1534
1,9600,242,70.3,141,03:15:43,00:03,2.22,--,1548
1,9602,242,70.3,141,03:15:45,00:02,2.08,--,1548
1,9604,---,70.3,141,03:15:47,00:02,2.08,--,1548
1,9606,---,70.3,145,03:15:50,00:03,2.22,--,1540
1,9608,---,70.3,141,03:15:52,00:02,2.08,--,1543
1,9610,---,70.3,141,03:15:55,00:03,2.22,--,1534
1,9613,---,70.3,141,03:15:57,00:02,0.07,--,1537
1,9615,242,70.3,145,03:16:00,00:02,1.85,--,1528
1,9617,---,70.3,141,03:16:02,00:02,1.04,--,1548
1,9619,242,70.3,141,03:16:05,00:02,2.08,--,1528
1,9621,---,70.3,141,03:16:08,00:03,1.85,--,1546
1,9624,---,70.3,141,03:16:10,00:02,1.97,--,1516
1,9626,242,70.3,145,03:16:13,00:02,2.22,--,1534
1,9628,242,70.3,145,03:16:16,00:03,2.08,--,1537
1,9630,242,70.3,138,03:16:18,00:02,2.08,--,1548
1,9632,---,70.3,141,03:16:21,00:03,2.22,--,1537
1,9635,242,70.3,138,03:16:23,00:02,2.33,--,1537
1,9637,242,70.3,141,03:16:26,00:03,2.22,--,1537
1,9639,242,70.3,138,03:16:28,00:02,2.33,--,1557
1,9641,242,70.3,138,03:16:30,00:02,2.22,--,1534
1,9643,---,70.3,141,03:16:33,00:03,2.08,--,1548
1,9645,---,70.3,138,03:16:35,00:02,2.08,--,1528
1,9648,242,70.3,141,03:16:38,00:03,2.74,--,1543
1,9650,242,70.3,141,03:16:40,00:02,2.22,--,1537
1,9652,242,70.3,141,03:16:43,00:02,2.33,--,1531
1,9654,---,70.3,141,03:16:45,00:02,2.33,--,1548
1,9656,242,70.3,138,03:16:48,00:02,2.33,--,1537
1,9658,242,70.3,138,03:16:50,00:02,2.48,--,1551
1,9660,242,70.3,138,03:16:52,00:02,2.33,--,1554
1,9663,242,70.3,145,03:16:55,00:03,2.22,--,1531
1,9665,---,70.3,138,03:16:57,00:02,2.22,--,1551
1,9667,242,70.3,138,03:17:00,00:03,2.22,--,1531
1,9669,242,70.3,145,03:17:02,00:02,2.22,--,1546
1,9671,---,70.3,141,03:17:04,00:02,2.33,--,1557
1,9673,---,70.3,134,03:17:07,00:03,2.61,--,1543
1,9676,242,70.3,138,03:17:10,00:03,2.22,--,1513
1,9678,---,70.3,138,03:17:12,00:02,2.22,--,1551
1,9680,---,70.3,138,03:17:15,00:03,2.22,--,1534
1,9683,---,70.3,138,03:17:17,00:02,2.22,--,1534
1,9685,---,70.3,134,03:17:20,00:02,1.97,--,1543
1,9687,242,70.3,145,03:17:23,00:03,2.08,--,1531
1,9689,---,70.3,138,03:17:25,00:02,1.85,--,1554
1,9692,---,70.3,141,03:17:27,00:02,2.33,--,1540
1,9694,242,70.3,141,03:17:30,00:03,2.08,--,1537
1,9696,242,70.3,141,03:17:32,00:02,1.97,--,1551
1,9698,---,70.3,141,03:17:34,00:02,2.33,--,1554
1,9700,---,70.3,141,03:17:37,00:03,2.33,--,1540
1,9702,---,70.3,138,03:17:40,00:03,2.22,--,1543
1,9705,242,70.3,141,03:17:42,00:02,2.33,--,1548
1,9707,---,70.3,138,03:17:44,00:02,1.97,--,1548
1,9709,---,70.3,141,03:17:47,00:03,2.22,--,1543
1,9711,242,70.3,141,03:17:49,00:02,2.33,--,1546
1,9713,242,70.3,138,03:17:52,00:02,2.08,--,1551
1,9715,---,70.3,141,03:17:54,00:02,2.08,--,1554
1,9717,242,70.3,141,03:17:56,00:02,2.22,--,1543
1,9720,---,70.3,141,03:17:59,00:02,0.07,--,1534
1,9722,---,70.3,138,03:18:02,00:03,2.08,--,1543
1,9725,---,70.3,141,03:18:05,00:03,2.08,--,1540
1,9727,242,70.3,141,03:18:07,00:02,2.33,--,1534
1,9729,---,70.3,145,03:18:10,00:03,2.08,--,1537
1,9732,242,70.3,141,03:18:13,00:03,2.33,--,1531
1,9734,242,70.3,145,03:18:16,00:03,2.08,--,1534
1,9736,---,70.3,138,03:18:18,00:02,2.22,--,1554
1,9738,242,70.3,145,03:18:21,00:03,2.08,--,1534
1,9740,---,70.3,141,03:18:23,00:02,2.08,--,1531
1,9744,242,70.3,141,03:18:29,00:05,2.22,--,1531
1,9746,242,70.3,138,03:18:31,00:02,2.48,--,1557
1,9748,---,70.3,141,03:18:34,00:03,2.22,--,1551
1,9750,242,70.3,141,03:18:36,00:02,2.22,--,1537
1,9752,242,70.3,141,03:18:39,00:03,2.22,--,1557
1,9754,242,70.3,141,03:18:41,00:02,1.97,--,1557
1,9756,---,70.3,141,03:18:43,00:02,2.48,--,1552
1,9758,242,70.3,138,03:18:46,00:03,1.97,--,1543
1,9761,242,70.3,145,03:18:49,00:03,2.33,--,1534
1,9763,---,70.3,141,03:18:51,00:02,1.97,--,1534
1,9765,242,70.3,141,03:18:54,00:02,1.97,--,1531
1,9767,242,70.3,138,03:18:56,00:02,1.97,--,1566
1,9769,---,70.3,141,03:18:59,00:03,2.22,--,1540
1,9772,---,70.3,141,03:19:02,00:03,2.08,--,1531
1,9774,---,70.3,141,03:19:05,00:03,1.97,--,1522
1,9777,---,70.3,141,03:19:07,00:02,2.22,--,1534
1,9779,---,70.3,141,03:19:10,00:03,2.33,--,1528
1,9781,242,70.3,141,03:19:13,00:03,2.22,--,1534
1,9784,---,70.3,141,03:19:16,00:03,1.74,--,1525
1,9787,242,70.3,145,03:19:19,00:03,1.74,--,1493
1,9789,---,70.3,141,03:19:22,00:03,1.74,--,1519
1,9792,242,70.3,141,03:19:26,00:04,1.53,--,1496
1,9794,---,70.3,138,03:19:28,00:02,1.74,--,1534
1,9797,---,70.3,141,03:19:32,00:03,1.74,--,1487
1,9800,---,70.3,141,03:19:35,00:03,1.53,--,1496
1,9803,---,70.3,145,03:19:39,00:03,1.74,--,1496
1,9805,242,70.3,141,03:19:42,00:03,1.74,--,1499
1,9807,---,70.3,141,03:19:45,00:03,1.85,--,1516
1,9810,242,70.3,138,03:19:49,00:04,1.74,--,1499
1,9812,242,70.3,145,03:19:52,00:03,1.85,--,1502
1,9815,242,70.3,141,03:19:55,00:03,1.85,--,1516
1,9817,---,70.3,141,03:19:58,00:02,1.74,--,1519
1,9820,242,70.3,141,03:20:02,00:03,1.74,--,1516
1,9822,242,70.3,141,03:20:04,00:02,1.74,--,1537
1,9825,242,70.3,145,03:20:08,00:04,0.10,--,1502
1,9827,242,70.3,141,03:20:11,00:03,2.33,--,1525
1,9830,242,70.3,141,03:20:14,00:03,1.85,--,1507
1,9832,---,70.3,138,03:20:16,00:02,1.97,--,1546
1,9836,242,70.3,138,03:20:23,00:06,1.97,--,1516
1,9839,---,70.3,138,03:20:26,00:03,1.85,--,1510
1,9841,242,70.3,141,03:20:29,00:03,1.74,--,1516
1,9843,---,70.3,145,03:20:31,00:02,1.97,--,1560
1,9846,242,70.3,141,03:20:34,00:03,1.74,--,1507
1,9849,242,70.3,138,03:20:37,00:03,1.74,--,1543
1,9851,---,70.3,141,03:20:40,00:03,1.85,--,1502
1,9854,242,70.3,141,03:20:44,00:03,1.85,--,1504
1,9856,242,70.3,145,03:20:47,00:03,2.08,--,1540
1,9859,---,70.3,145,03:20:50,00:03,1.85,--,1522
1,9862,---,70.3,138,03:20:53,00:03,1.85,--,1528
1,9864,---,70.3,145,03:20:56,00:03,1.53,--,1519
1,9867,---,70.3,141,03:20:58,00:02,2.22,--,1546
1,9869,242,70.3,141,03:21:01,00:03,2.22,--,1548
1,9872,242,70.3,138,03:21:03,00:02,2.48,--,1563
1,9874,242,70.3,141,03:21:06,00:03,2.33,--,1551
1,9876,---,70.3,141,03:21:08,00:02,2.22,--,1554
1,9879,242,70.3,141,03:21:11,00:03,2.08,--,1548
1,9881,242,70.3,141,03:21:13,00:02,2.08,--,1546
1,9884,---,70.3,138,03:21:16,00:03,2.08,--,1543
1,9886,242,70.3,145,03:21:19,00:03,2.08,--,1537
1,9888,---,70.3,138,03:21:21,00:02,2.22,--,1569
1,9891,---,70.3,145,03:21:23,00:02,2.08,--,1546
1,9893,242,70.3,141,03:21:26,00:02,2.22,--,1554
1,9895,---,70.3,141,03:21:28,00:02,2.33,--,1563
1,9898,242,70.3,145,03:21:31,00:03,2.22,--,1554
1,9900,---,70.3,141,03:21:33,00:02,2.33,--,1566
1,9902,242,70.3,141,03:21:35,00:02,2.48,--,1557
1,9904,---,70.3,141,03:21:37,00:02,2.33,--,1560
1,9906,---,70.3,141,03:21:40,00:03,2.33,--,1548
1,9909,242,70.3,138,03:21:43,00:03,1.85,--,1537
1,9911,---,70.3,138,03:21:44,00:01,2.33,--,1566
1,9913,---,70.3,138,03:21:47,00:02,1.85,--,1537
1,9915,242,70.3,141,03:21:50,00:03,1.97,--,1531
1,9918,242,70.3,138,03:21:53,00:03,1.97,--,1531
1,9920,242,70.3,138,03:21:56,00:03,1.97,--,1528
1,9924,---,70.3,141,03:22:01,00:05,2.08,--,1540
1,9927,---,70.3,141,03:22:04,00:03,2.08,--,1513
1,9929,242,70.3,138,03:22:07,00:03,2.22,--,1534
1,9932,242,70.3,141,03:22:10,00:03,2.08,--,1528
1,9934,---,70.3,141,03:22:13,00:03,1.97,--,1540
1,9936,242,70.3,138,03:22:16,00:03,0.09,--,1519
1,9939,---,70.3,141,03:22:18,00:02,1.85,--,1537
1,9941,---,70.3,141,03:22:22,00:03,2.08,--,1516
1,9944,---,70.3,141,03:22:25,00:03,1.97,--,1516
1,9946,---,70.3,141,03:22:27,00:02,2.08,--,1531
1,9948,---,70.3,141,03:22:30,00:03,2.08,--,1546
1,9951,242,70.3,141,03:22:33,00:03,2.08,--,1519
1,9954,---,70.3,141,03:22:36,00:03,2.08,--,1516
1,9956,---,70.3,141,03:22:39,00:03,1.97,--,1504
1,9959,242,70.3,141,03:22:42,00:03,1.97,--,1528
1,9961,242,70.3,141,03:22:44,00:02,1.85,--,1560
1,9963,---,70.3,141,03:22:47,00:03,2.08,--,1525
1,9966,---,70.1,141,03:22:51,00:04,1.97,--,1504
1,9968,---,70.3,141,03:22:54,00:03,2.08,--,1510
1,9970,---,70.3,145,03:22:57,00:03,1.97,--,1528
1,9973,242,70.3,141,03:23:00,00:03,1.85,--,1510
1,9975,---,70.3,145,03:23:02,00:02,2.08,--,1543
1,9977,242,70.3,145,03:23:06,00:03,1.63,--,1510
1,9980,---,70.3,141,03:23:11,00:05,1.97,--,1507
1,9984,---,70.1,138,03:23:17,00:06,2.08,--,1519
1,9986,242,70.1,141,03:23:20,00:03,2.08,--,1528
1,9989,---,70.3,141,03:23:23,00:03,1.97,--,1540
1,9991,---,70.3,141,03:23:25,00:02,2.22,--,1537
1,9993,242,70.1,145,03:23:28,00:03,1.97,--,1531
1,9996,---,70.1,141,03:23:31,00:03,0.31,--,1507
1,9998,---,70.1,141,03:23:34,00:03,2.08,--,1534
1,|,---,70.1,141,03:23:37,00:03,2.08,--,1513
1,|,242,70.3,141,03:23:40,00:03,2.08,--,1528
1,|,242,70.3,138,03:23:43,00:03,2.22,--,1543
1,|,---,70.3,138,03:23:45,00:02,1.97,--,1546
1,|,242,70.3,141,03:23:48,00:03,1.97,--,1513
1,|,---,70.3,141,03:23:54,00:06,2.08,--,1510
1,|,---,70.3,141,03:23:57,00:03,2.22,--,1516
1,|,---,70.3,141,03:24:00,00:03,1.97,--,1531
1,|,---,70.3,141,03:24:06,00:06,2.08,--,1537
1,|,242,70.3,141,03:24:09,00:03,2.08,--,1531
1,|,---,70.3,141,03:24:12,00:03,1.97,--,1540
1,|,242,70.3,141,03:24:15,00:03,2.08,--,1528
1,|,---,70.3,141,03:24:21,00:06,1.85,--,1510
1,|,---,70.3,145,03:24:24,00:03,1.74,--,1519
1,|,242,70.3,138,03:24:27,00:03,2.08,--,1534
1,|,242,70.3,141,03:24:30,00:03,1.85,--,1525
1,|,242,70.3,141,03:24:32,00:02,1.97,--,1546
1,|,242,70.3,141,03:24:35,00:03,1.97,--,1560
1,|,242,70.3,138,03:24:38,00:03,2.22,--,1522
1,|,---,70.3,138,03:24:43,00:05,1.97,--,1543
1,|,242,70.1,141,03:24:46,00:03,2.08,--,1519
1,|,242,70.1,141,03:24:49,00:03,1.97,--,1543
1,|,242,70.3,141,03:24:51,00:02,2.08,--,1560
1,|,---,70.1,138,03:24:54,00:03,1.85,--,1537
1,|,242,70.3,141,03:24:57,00:03,2.08,--,1525
1,|,---,70.1,141,03:24:59,00:02,2.08,--,1543
1,|,---,70.1,141,03:25:02,00:03,2.08,--,1546
1,|,---,70.1,134,03:25:07,00:05,2.48,--,1551
1,|,242,70.3,138,03:25:09,00:02,1.85,--,1551
1,|,---,70.1,141,03:25:12,00:03,1.97,--,1546
1,|,242,70.1,141,03:25:15,00:03,2.33,--,1525
1,|,242,70.1,141,03:25:17,00:02,2.08,--,1557
1,|,---,70.1,141,03:25:20,00:03,1.97,--,1548
1,|,242,70.1,138,03:25:23,00:03,2.22,--,1543
1,|,242,70.3,145,03:25:25,00:02,2.22,--,1534
1,|,---,70.3,141,03:25:28,00:03,1.97,--,1543
1,|,---,70.1,141,03:25:31,00:03,2.33,--,1531
1,|,242,70.1,145,03:25:34,00:03,1.85,--,1543
1,|,242,70.3,141,03:25:36,00:02,2.22,--,1557
1,|,---,70.1,141,03:25:38,00:02,2.08,--,1554
1,|,---,70.3,145,03:25:41,00:03,2.08,--,1540
1,|,242,70.3,145,03:25:44,00:03,2.22,--,1525
1,|,242,70.3,145,03:25:47,00:03,1.97,--,1531
1,|,---,70.1,141,03:25:49,00:02,2.22,--,1551
1,|,242,70.3,141,03:25:52,00:03,2.08,--,1546
1,|,---,70.1,141,03:25:55,00:03,2.08,--,1540
1,|,---,70.1,141,03:25:57,00:02,1.74,--,1528
1,|,242,70.3,138,03:26:00,00:02,2.08,--,1543
1,|,242,70.1,141,03:26:03,00:03,2.08,--,1528
1,|,---,70.3,141,03:26:05,00:02,2.08,--,1563
1,|,---,70.3,141,03:26:08,00:03,2.22,--,1528
1,|,242,70.1,141,03:26:11,00:03,2.22,--,1543
1,|,---,70.1,141,03:26:13,00:02,2.22,--,1563
1,|,---,70.1,141,03:26:15,00:02,1.97,--,1546
1,|,---,70.1,141,03:26:18,00:02,2.08,--,1543
1,|,---,70.1,138,03:26:21,00:03,1.97,--,1543
1,|,---,70.1,141,03:26:24,00:03,2.08,--,1522
1,|,242,70.1,138,03:26:29,00:05,2.08,--,1548
1,|,242,70.1,141,03:26:32,00:03,1.85,--,1543
1,|,242,70.1,138,03:26:34,00:02,2.08,--,1554
1,|,---,70.1,141,03:26:40,00:06,2.08,--,1540
1,|,242,70.1,141,03:26:42,00:02,2.08,--,1534
1,|,---,70.1,141,03:26:45,00:02,1.53,--,1563
1,|,---,70.1,141,03:26:47,00:02,2.08,--,1534
1,|,242,70.1,141,03:26:50,00:02,2.33,--,1537
1,|,242,70.1,141,03:26:53,00:03,2.33,--,1546
1,|,---,70.1,141,03:26:55,00:02,2.33,--,1537
1,|,---,70.1,141,03:26:58,00:02,2.22,--,1548
1,|,242,70.1,141,03:27:01,00:03,2.22,--,1537
1,|,242,70.1,138,03:27:03,00:02,2.08,--,1546
1,|,242,70.1,138,03:27:06,00:03,2.08,--,1557
1,|,242,70.1,141,03:27:08,00:02,2.22,--,1554
1,|,---,70.1,141,03:27:10,00:02,1.85,--,1563
1,|,242,70.1,145,03:27:13,00:03,2.08,--,1543
1,|,---,70.1,141,03:27:15,00:02,2.08,--,1560
1,|,---,70.1,141,03:27:18,00:03,2.22,--,1537
1,|,---,70.1,141,03:27:21,00:03,1.97,--,1540
1,|,---,70.1,141,03:27:23,00:02,2.08,--,1540
1,|,242,70.1,141,03:27:26,00:03,2.22,--,1531
1,|,242,70.1,141,03:27:30,00:04,2.08,--,1563
1,|,---,70.1,141,03:27:33,00:03,2.22,--,1531
1,|,242,70.1,145,03:27:36,00:03,2.22,--,1528
1,|,242,70.1,138,03:27:39,00:03,2.08,--,1548
1,|,242,70.1,141,03:27:41,00:02,2.22,--,1554
1,|,242,70.1,141,03:27:44,00:03,2.08,--,1551
1,|,---,70.1,141,03:27:49,00:05,2.22,--,1543
1,|,---,70.1,138,03:27:52,00:03,1.97,--,1534
1,|,242,70.1,141,03:27:55,00:03,1.97,--,1525
1,|,242,70.1,141,03:27:57,00:02,2.08,--,1563
1,|,---,70.1,141,03:28:00,00:03,2.08,--,1546
1,|,---,70.1,141,03:28:03,00:03,2.22,--,1513
1,|,---,70.1,145,03:28:06,00:03,0.40,--,1534
1,|,242,70.1,138,03:28:11,00:05,2.08,--,1537
1,|,---,70.1,138,03:28:14,00:03,1.85,--,1557
1,|,---,70.1,141,03:28:16,00:02,1.97,--,1546
1,|,242,70.1,141,03:28:19,00:03,2.22,--,1537
1,|,242,70.1,138,03:28:22,00:03,1.97,--,1557
1,|,---,70.1,141,03:28:24,00:02,2.22,--,1551
1,|,---,70.1,141,03:28:27,00:03,2.22,--,1522
1,|,---,70.1,141,03:28:33,00:06,2.08,--,1537
1,|,242,70.1,141,03:28:36,00:03,1.97,--,1519
1,|,242,70.1,141,03:28:39,00:03,2.08,--,1525
1,|,242,70.1,141,03:28:41,00:02,1.74,--,1534
1,|,---,70.1,141,03:28:43,00:01,2.08,--,1566
1,|,242,70.1,145,03:28:46,00:02,1.97,--,1540
1,|,---,70.1,145,03:28:49,00:03,2.22,--,1534
1,|,242,70.1,141,03:28:52,00:03,2.08,--,1543
1,|,242,70.1,138,03:28:54,00:02,2.08,--,1548
1,|,242,70.1,141,03:28:57,00:03,2.22,--,1543
1,|,242,70.1,138,03:28:59,00:02,1.85,--,1554
1,|,242,70.1,141,03:29:02,00:03,2.22,--,1557
1,|,---,70.1,141,03:29:04,00:02,1.01,--,1560
1,|,242,70.1,141,03:29:07,00:03,2.08,--,1543
1,|,---,70.1,138,03:29:09,00:02,2.22,--,1546
1,|,242,70.1,141,03:29:12,00:02,2.08,--,1537
1,|,---,70.1,138,03:29:15,00:03,1.97,--,1551
1,|,---,70.1,141,03:29:18,00:03,2.08,--,1537
1,|,---,70.1,141,03:29:20,00:02,2.08,--,1540
1,|,242,70.1,141,03:29:23,00:03,1.85,--,1546
1,|,---,70.1,141,03:29:29,00:06,2.08,--,1543
1,|,242,70.1,145,03:29:31,00:02,1.97,--,1540
1,|,242,70.1,141,03:29:34,00:03,2.22,--,1560
1,|,242,70.1,141,03:29:36,00:02,1.97,--,1554
1,|,242,70.1,141,03:29:39,00:03,2.22,--,1537
1,|,---,70.1,141,03:29:41,00:02,2.08,--,1551
1,|,242,70.1,138,03:29:47,00:06,1.97,--,1537
1,|,---,70.1,141,03:29:52,00:05,2.08,--,1534
1,|,---,70.1,141,03:29:55,00:03,2.08,--,1537
1,|,---,70.1,141,03:29:58,00:03,0.10,--,1531
1,|,242,70.1,138,03:30:00,00:02,2.08,--,1543
1,|,---,70.1,138,03:30:03,00:03,2.22,--,1543
1,|,---,70.1,141,03:30:09,00:06,2.08,--,1531
1,|,---,70.1,141,03:30:11,00:02,0.15,--,1537
1,|,---,69.9,138,03:30:17,00:06,2.22,--,1543
1,|,---,69.9,141,03:30:20,00:03,2.22,--,1540
1,|,242,69.9,141,03:30:25,00:05,2.08,--,1534
1,|,---,70.1,145,03:30:28,00:03,2.08,--,1522
1,|,242,70.1,141,03:30:31,00:03,2.08,--,1537
1,|,242,70.1,141,03:30:34,00:03,1.97,--,1551
1,|,---,69.9,141,03:30:36,00:02,2.08,--,1537
1,|,242,70.1,141,03:30:41,00:05,2.08,--,1563
1,|,242,70.1,141,03:30:44,00:03,2.08,--,1551
1,|,242,70.1,138,03:30:47,00:03,2.33,--,1528
1,|,---,70.1,141,03:30:49,00:02,2.08,--,1548
1,|,242,70.1,141,03:30:52,00:03,2.08,--,1543
1,|,---,69.9,141,03:30:54,00:02,2.33,--,1548
1,|,---,70.1,141,03:30:57,00:03,2.08,--,1537
1,|,242,70.1,141,03:31:03,00:06,2.22,--,1522
1,|,242,70.1,138,03:31:06,00:03,2.08,--,1516
1,|,242,70.1,141,03:31:08,00:02,2.08,--,1548
1,|,242,70.1,141,03:31:11,00:03,1.97,--,1557
1,|,---,70.1,141,03:31:13,00:02,1.97,--,1537
1,|,242,70.1,141,03:31:16,00:02,2.08,--,1522
1,|,242,70.1,141,03:31:18,00:02,1.97,--,1569
1,|,242,70.1,138,03:31:21,00:03,2.08,--,1551
1,|,242,70.1,141,03:31:23,00:02,2.08,--,1566
1,|,---,70.1,145,03:31:25,00:02,1.97,--,1546
1,|,---,70.1,141,03:31:28,00:03,2.08,--,1540
1,|,242,70.1,141,03:31:31,00:03,2.08,--,1540
1,|,242,70.1,141,03:31:33,00:02,2.08,--,1546
1,|,242,70.1,141,03:31:36,00:03,2.33,--,1554
1,|,---,70.1,138,03:31:38,00:02,1.85,--,1551
1,|,---,70.1,141,03:31:41,00:03,2.08,--,1546
1,|,242,70.1,145,03:31:47,00:06,2.08,--,1531
1,|,242,70.1,141,03:31:49,00:02,2.22,--,1543
1,|,242,70.1,138,03:31:52,00:03,2.22,--,1543
1,|,---,70.1,145,03:31:54,00:02,2.22,--,1557
1,|,---,70.1,141,03:31:57,00:03,2.08,--,1525
1,|,---,70.1,141,03:32:00,00:03,1.97,--,1543
1,|,242,70.1,141,03:32:03,00:03,2.08,--,1534
1,|,---,70.1,138,03:32:05,00:02,2.22,--,1572
1,|,242,70.1,141,03:32:08,00:03,2.22,--,1534
1,|,242,70.1,141,03:32:11,00:03,2.08,--,1543
1,|,242,70.1,141,03:32:13,00:02,2.08,--,1543
1,|,---,70.1,145,03:32:16,00:03,2.22,--,1540
1,|,242,70.1,141,03:32:19,00:03,2.08,--,1543
1,|,242,70.1,141,03:32:21,00:02,1.85,--,1548
1,|,---,70.1,141,03:32:24,00:03,1.74,--,1551
1,|,242,70.1,145,03:32:26,00:02,2.08,--,1546
1,|,---,70.1,138,03:32:29,00:03,2.22,--,1534
1,|,242,70.1,141,03:32:32,00:03,2.08,--,1546
1,|,242,70.1,141,03:32:35,00:03,1.97,--,1537
1,|,---,70.1,138,03:32:37,00:02,2.08,--,1540
1,|,242,70.1,141,03:32:40,00:03,2.08,--,1548
1,|,242,70.1,138,03:32:42,00:02,2.22,--,1566
1,|,242,70.1,141,03:32:45,00:03,1.97,--,1540
1,|,242,70.1,141,03:32:48,00:03,1.97,--,1548
1,|,---,70.1,141,03:32:50,00:02,1.97,--,1543
1,|,---,70.1,138,03:32:53,00:03,1.97,--,1528
1,|,242,70.1,141,03:32:58,00:05,2.08,--,1557
1,|,---,70.1,141,03:33:01,00:03,2.08,--,1560
1,|,242,70.1,141,03:33:04,00:03,2.22,--,1519
1,|,242,70.1,141,03:33:06,00:02,2.08,--,1551
1,|,242,70.1,138,03:33:11,00:05,2.08,--,1548
1,|,---,70.1,141,03:33:13,00:02,2.22,--,1563
1,|,---,70.1,138,03:33:19,00:06,2.08,--,1534
1,|,---,70.1,141,03:33:22,00:03,2.08,--,1531
1,|,---,70.1,141,03:33:25,00:03,2.22,--,1540
1,|,242,70.1,138,03:33:27,00:02,2.22,--,1534
1,|,---,70.1,145,03:33:30,00:02,1.97,--,1563
1,|,---,70.1,141,03:33:32,00:02,2.33,--,1546
1,|,---,70.1,145,03:33:35,00:03,1.85,--,1540
1,|,242,70.1,141,03:33:37,00:02,2.33,--,1546
1,|,242,70.1,141,03:33:40,00:02,2.08,--,1543
1,|,---,70.1,141,03:33:43,00:03,2.08,--,1546
1,|,242,70.1,141,03:33:45,00:02,2.22,--,1546
1,|,242,70.1,141,03:33:47,00:02,2.33,--,1557
1,|,242,70.1,141,03:33:50,00:03,2.33,--,1551
1,|,242,70.1,138,03:33:54,00:04,2.08,--,1543
1,|,242,70.1,141,03:33:57,00:03,2.22,--,1557
1,|,242,70.1,138,03:34:02,00:05,2.22,--,1537
1,|,---,70.1,141,03:34:07,00:05,2.22,--,1534
1,|,---,70.1,141,03:34:10,00:03,2.08,--,1537
1,|,---,70.1,141,03:34:13,00:03,2.08,--,1543
1,|,242,70.1,145,03:34:15,00:02,2.08,--,1540
1,|,---,70.1,141,03:34:21,00:06,2.33,--,1537
1,|,---,70.1,138,03:34:23,00:02,1.97,--,1543
1,|,242,70.1,138,03:34:26,00:03,2.22,--,1546
1,|,242,70.1,141,03:34:28,00:02,2.22,--,1543
1,|,242,70.1,145,03:34:31,00:03,2.08,--,1563
1,|,242,70.1,141,03:34:33,00:02,1.85,--,1557
1,|,242,70.1,141,03:34:36,00:03,2.48,--,1531
1,|,---,70.1,138,03:34:38,00:02,2.22,--,1560
1,|,---,70.1,138,03:34:41,00:03,2.22,--,1548
1,|,---,70.1,141,03:34:43,00:02,2.08,--,1543
1,|,242,70.1,141,03:34:46,00:03,2.08,--,1548
1,|,---,70.1,141,03:34:48,00:02,2.22,--,1560
1,|,242,70.1,141,03:34:51,00:03,2.33,--,1540
1,|,---,70.1,138,03:34:53,00:02,2.08,--,1543
1,|,242,70.1,138,03:34:56,00:03,2.08,--,1546
1,|,242,70.1,141,03:34:59,00:03,2.33,--,1546
1,|,---,70.1,141,03:35:01,00:02,1.97,--,1546
1,|,242,70.1,141,03:35:04,00:03,2.22,--,1546
1,|,242,70.1,145,03:35:07,00:03,2.08,--,1528
1,|,242,70.1,141,03:35:09,00:02,2.08,--,1560
1,|,242,70.1,141,03:35:11,00:02,2.22,--,1557
1,|,242,70.1,141,03:35:14,00:02,2.22,--,1540
1,|,---,70.1,145,03:35:16,00:02,2.22,--,1557
1,|,---,70.1,141,03:35:21,00:05,2.33,--,1557
1,|,---,70.1,138,03:35:24,00:03,2.61,--,1540
1,|,242,70.1,134,03:35:27,00:03,2.08,--,1546
1,|,---,70.1,130,03:35:29,00:02,2.33,--,1563
1,|,242,70.1,98,03:35:31,00:02,3.79,--,1563
1,|,---,70.1,102,03:35:32,00:00,3.96,--,1581
1,|,242,70.1,106,03:35:34,00:02,3.96,--,1572
1,|,242,70.1,106,03:35:35,00:01,3.79,--,1572
1,|,242,70.1,106,03:35:36,00:01,3.66,--,1575
1,|,---,70.1,106,03:35:38,00:01,3.66,--,1575
1,|,242,70.1,109,03:35:39,00:01,3.66,--,1575
1,|,242,70.1,106,03:35:41,00:02,3.32,--,1572
1,|,---,70.1,106,03:35:42,00:01,3.18,--,1575
1,|,---,70.1,106,03:35:43,00:01,3.79,--,1575
1,|,---,70.1,106,03:35:45,00:02,3.66,--,1575
1,|,---,70.1,106,03:35:46,00:01,3.66,--,1578
1,|,---,70.1,106,03:35:48,00:02,0.09,--,1572
1,|,---,70.1,106,03:35:49,00:01,3.79,--,1572
1,|,242,70.1,106,03:35:50,00:01,3.47,--,1575
1,|,---,70.1,106,03:35:52,00:02,3.47,--,1575
1,|,242,70.1,106,03:35:53,00:01,3.66,--,1575
1,|,---,70.1,106,03:35:54,00:01,0.52,--,1575
1,|,242,70.1,106,03:35:56,00:02,3.79,--,1575
1,|,242,70.1,106,03:35:59,00:03,3.79,--,1578
1,|,242,70.1,102,03:36:00,00:01,3.03,--,1578
1,|,242,70.1,102,03:36:01,00:01,3.47,--,1575
1,|,242,70.1,106,03:36:03,00:02,3.47,--,1575
1,|,242,70.1,106,03:36:06,00:03,3.66,--,1575
1,|,242,70.1,106,03:36:07,00:01,3.32,--,1575
1,|,---,70.1,106,03:36:09,00:02,3.47,--,1578
1,|,---,70.1,109,03:36:10,00:01,3.66,--,1575
1,|,---,70.1,116,03:36:12,00:02,2.61,--,1572
1,|,242,70.1,102,03:36:14,00:02,2.48,--,1572
1,|,242,70.1,98,03:36:16,00:02,3.79,--,1572
1,|,242,70.1,102,03:36:17,00:01,3.79,--,1575
1,|,242,70.1,106,03:36:19,00:02,4.31,--,1575
1,|,---,70.1,102,03:36:21,00:01,4.14,--,1578
1,|,---,70.1,106,03:36:22,00:01,3.96,--,1575
1,|,242,70.1,102,03:36:24,00:02,3.96,--,1575
1,|,242,70.3,102,03:36:25,00:01,4.31,--,1578
1,|,242,70.1,102,03:36:27,00:02,4.14,--,1581
1,|,242,70.1,102,03:36:28,00:01,3.79,--,1578
1,|,---,70.3,102,03:36:30,00:02,4.14,--,1578
1,|,242,70.1,102,03:36:31,00:01,4.14,--,1584
1,|,242,70.1,102,03:36:32,00:01,3.96,--,1575
1,|,242,70.1,102,03:36:33,00:01,4.31,--,1578
1,|,242,70.1,106,03:36:35,00:02,3.96,--,1578
1,|,242,70.1,102,03:36:37,00:01,3.79,--,1575
1,|,---,70.3,102,03:36:38,00:01,3.96,--,1578
1,|,242,70.1,102,03:36:39,00:01,3.96,--,1575
1,|,242,70.1,102,03:36:40,00:01,3.96,--,1575
1,|,242,70.1,106,03:36:41,00:01,3.96,--,1578
1,|,242,70.1,91,03:36:43,00:01,3.03,--,1581
1,|,---,70.1,91,03:36:44,00:01,3.79,--,1578
1,|,242,70.1,95,03:36:45,00:01,3.79,--,1578
1,|,---,70.1,102,03:36:47,00:02,3.32,--,1578
1,|,---,70.1,95,03:36:48,00:01,3.96,--,1575
1,|,---,70.1,95,03:36:50,00:02,3.66,--,1581
1,|,---,70.1,98,03:36:51,00:01,3.66,--,1575
1,|,242,70.1,102,03:36:53,00:02,3.66,--,1572
1,|,---,70.1,102,03:36:54,00:01,0.30,--,1572
1,|,242,70.1,102,03:36:56,00:02,3.79,--,1572
1,|,242,70.1,102,03:36:57,00:01,3.66,--,1575
1,|,242,70.1,102,03:36:59,00:02,3.47,--,1572
1,|,242,70.1,102,03:37:02,00:03,3.47,--,1575
1,|,---,70.1,102,03:37:04,00:02,3.47,--,1575
1,|,242,70.1,102,03:37:06,00:02,3.66,--,1572
1,|,242,70.1,102,03:37:07,00:01,3.66,--,1578
1,|,242,70.1,102,03:37:09,00:02,3.66,--,1578
1,|,---,70.1,102,03:37:10,00:01,3.66,--,1575
1,|,242,70.1,95,03:37:12,00:02,3.18,--,1572
1,|,---,70.1,98,03:37:14,00:02,2.48,--,1566
1,|,242,70.1,130,03:37:17,00:03,2.33,--,1543
1,|,242,70.1,138,03:37:19,00:02,2.22,--,1560
1,|,242,70.1,145,03:37:21,00:02,2.08,--,1566
1,|,242,70.1,141,03:37:23,00:02,2.48,--,1566
1,|,242,70.1,141,03:37:26,00:03,2.22,--,1546
1,|,---,70.1,141,03:37:28,00:02,2.48,--,1548
1,|,242,70.1,141,03:37:30,00:02,2.48,--,1548
1,|,---,70.1,138,03:37:33,00:02,2.08,--,1560
1,|,242,70.1,141,03:37:35,00:02,2.33,--,1554
1,|,242,70.1,141,03:37:37,00:02,2.48,--,1566
1,|,242,70.1,141,03:37:39,00:02,2.08,--,1566
1,|,242,70.1,141,03:37:41,00:02,2.33,--,1560
1,|,---,70.1,141,03:37:44,00:03,2.22,--,1554
1,|,242,70.1,141,03:37:46,00:02,2.22,--,1557
1,|,242,70.1,141,03:37:48,00:02,2.22,--,1563
1,|,242,70.1,141,03:37:50,00:02,2.48,--,1551
1,|,---,70.1,138,03:37:53,00:02,2.48,--,1560
1,|,242,70.3,145,03:37:55,00:02,2.48,--,1554
1,|,242,70.1,141,03:37:57,00:02,2.22,--,1563
1,|,242,70.1,141,03:38:00,00:03,2.22,--,1554
1,|,242,70.1,141,03:38:02,00:02,2.33,--,1563
1,|,242,70.1,141,03:38:04,00:02,2.33,--,1566
1,|,242,70.1,141,03:38:06,00:02,2.33,--,1554
1,|,---,70.1,141,03:38:08,00:02,2.08,--,1551
1,|,---,70.1,141,03:38:11,00:02,2.33,--,1548
1,|,242,70.3,141,03:38:13,00:02,2.22,--,1551
1,|,242,70.3,141,03:38:15,00:02,2.33,--,1569
1,|,---,70.3,141,03:38:18,00:03,2.22,--,1560
1,|,---,70.1,145,03:38:20,00:02,1.97,--,1543
1,|,242,70.3,145,03:38:23,00:03,2.48,--,1548
1,|,---,70.3,141,03:38:25,00:02,2.08,--,1563
1,|,242,70.3,145,03:38:27,00:03,2.33,--,1551
1,|,242,70.3,141,03:38:29,00:01,2.33,--,1572
1,|,242,70.3,145,03:38:32,00:03,2.22,--,1563
1,|,---,70.3,141,03:38:34,00:02,2.08,--,1548
1,|,---,70.3,138,03:38:37,00:03,2.08,--,1551
1,|,242,70.3,141,03:38:39,00:02,2.48,--,1557
1,|,---,70.3,141,03:38:41,00:02,2.08,--,1563
1,|,242,70.1,145,03:38:44,00:03,2.22,--,1543
1,|,242,70.1,141,03:38:46,00:02,2.33,--,1546
1,|,242,70.1,141,03:38:49,00:03,2.33,--,1560
1,|,242,70.1,145,03:38:51,00:02,2.33,--,1557
1,|,---,70.1,138,03:38:56,00:05,2.22,--,1557
1,|,242,70.1,141,03:39:01,00:05,2.08,--,1551
1,|,242,70.1,145,03:39:03,00:02,2.22,--,1548
1,|,242,70.1,141,03:39:06,00:03,2.33,--,1563
1,|,242,70.1,141,03:39:08,00:02,2.08,--,1548
1,|,---,70.1,141,03:39:12,00:04,2.08,--,1569
1,|,---,70.1,138,03:39:14,00:02,0.07,--,1551
1,|,242,70.1,141,03:39:17,00:02,2.22,--,1554
1,|,---,70.1,138,03:39:19,00:02,2.33,--,1548
1,|,---,70.1,145,03:39:22,00:03,2.48,--,1551
1,|,242,70.1,138,03:39:24,00:02,2.22,--,1540
1,|,242,70.1,141,03:39:27,00:02,2.33,--,1548
1,|,---,70.1,145,03:39:29,00:02,2.22,--,1566
1,|,242,70.1,138,03:39:31,00:02,2.33,--,1551
1,|,---,70.1,141,03:39:33,00:01,2.33,--,1569
1,|,---,70.1,145,03:39:36,00:02,2.33,--,1540
1,|,242,70.1,141,03:39:39,00:03,2.08,--,1548
1,|,---,70.1,138,03:39:41,00:02,2.33,--,1546
1,|,---,70.1,141,03:39:44,00:03,0.07,--,1548
1,|,242,70.1,145,03:39:46,00:02,2.08,--,1548
1,|,---,70.3,141,03:39:49,00:03,2.08,--,1540
1,|,---,70.3,141,03:39:52,00:03,2.22,--,1537
1,|,242,70.1,141,03:39:54,00:02,1.97,--,1543
1,|,---,70.1,141,03:39:57,00:03,2.33,--,1551
1,|,242,70.3,138,03:39:59,00:02,2.22,--,1537
1,|,---,70.1,141,03:40:02,00:03,2.33,--,1554
1,|,242,70.1,138,03:40:04,00:02,2.22,--,1540
1,|,---,70.3,145,03:40:06,00:02,2.08,--,1560
1,|,---,70.3,141,03:40:09,00:02,2.08,--,1548
1,|,---,70.1,145,03:40:11,00:02,2.33,--,1551
1,|,242,70.3,145,03:40:14,00:03,2.22,--,1548
1,|,---,70.3,145,03:40:16,00:02,2.08,--,1554
1,|,---,70.1,145,03:40:19,00:03,2.22,--,1540
1,|,---,70.1,141,03:40:22,00:03,2.22,--,1540
1,|,242,70.1,141,03:40:24,00:02,2.08,--,1548
1,|,---,70.1,141,03:40:26,00:02,2.22,--,1566
1,|,242,70.1,141,03:40:29,00:03,2.48,--,1543
1,|,242,70.1,141,03:40:31,00:02,2.33,--,1563
1,|,---,70.1,141,03:40:33,00:02,2.22,--,1551
1,|,---,70.1,141,03:40:36,00:03,2.48,--,1540
1,|,242,70.1,145,03:40:38,00:02,2.33,--,1546
1,|,---,70.1,145,03:40:41,00:03,2.33,--,1551
1,|,242,70.1,141,03:40:43,00:02,2.08,--,1548
1,|,---,70.1,138,03:40:46,00:03,1.97,--,1551
1,|,242,70.1,141,03:40:49,00:03,2.22,--,1537
2,9378,---,71.6,177,03:11:28,00:02,2.61,--,1636
2,9380,242,71.6,185,03:11:30,00:02,2.61,--,1634
2,9381,242,71.6,175,03:11:32,00:02,2.74,--,1637
2,9383,242,71.6,177,03:11:34,00:02,2.61,--,1634
2,9385,242,71.6,177,03:11:36,00:02,2.48,--,1633
2,9387,242,71.6,171,03:11:38,00:02,3.03,--,1643
2,9389,242,71.4,179,03:11:40,00:02,2.48,--,1637
2,9391,242,71.4,182,03:11:42,00:02,2.74,--,1640
2,9392,---,71.4,177,03:11:45,00:02,2.61,--,1630
2,9394,242,71.4,185,03:11:47,00:02,2.61,--,1634
2,9396,---,71.4,179,03:11:49,00:02,2.61,--,1640
2,9398,242,71.4,174,03:11:51,00:02,2.48,--,1631
2,9400,242,71.4,177,03:11:53,00:02,2.74,--,1630
2,9402,---,71.4,177,03:11:55,00:02,2.88,--,1633
2,9404,---,71.4,177,03:11:57,00:02,2.74,--,1627
2,9406,---,71.4,174,03:11:59,00:02,2.61,--,1630
2,9408,242,71.4,179,03:12:02,00:02,2.88,--,1637
2,9409,242,71.4,177,03:12:03,00:01,2.48,--,1633
2,9411,242,71.4,174,03:12:05,00:02,2.48,--,1634
2,9413,---,71.2,174,03:12:07,00:02,2.48,--,1628
2,9415,242,71.2,182,03:12:09,00:02,2.88,--,1637
2,9417,---,71.2,174,03:12:13,00:04,2.48,--,1630
2,9419,---,71.2,177,03:12:15,00:02,2.74,--,1657
2,9421,---,71.2,177,03:12:18,00:03,2.61,--,1627
2,9423,---,71.2,177,03:12:20,00:02,2.74,--,1634
2,9425,---,71.2,177,03:12:22,00:02,2.61,--,1627
2,9427,---,71.2,177,03:12:24,00:02,2.61,--,1630
2,9429,242,71.2,179,03:12:27,00:02,2.74,--,1637
2,9431,---,71.0,179,03:12:28,00:01,2.48,--,1643
2,9433,242,71.0,179,03:12:30,00:02,2.61,--,1637
2,9435,242,71.0,182,03:12:33,00:02,2.61,--,1637
2,9436,242,71.0,174,03:12:35,00:02,2.61,--,1628
2,9438,242,70.8,179,03:12:36,00:01,2.74,--,1640
2,9440,242,71.0,177,03:12:38,00:02,2.74,--,1628
2,9442,---,71.0,182,03:12:40,00:02,2.74,--,1640
2,9443,242,71.0,177,03:12:42,00:02,2.48,--,1630
2,9445,242,71.0,179,03:12:44,00:02,2.61,--,1643
2,9447,---,70.8,171,03:12:46,00:02,2.48,--,1637
2,9449,---,70.8,179,03:12:48,00:02,2.74,--,1637
2,9451,---,70.8,182,03:12:50,00:02,2.74,--,1637
2,9453,242,70.8,188,03:12:53,00:03,2.74,--,1634
2,9455,---,70.8,185,03:12:54,00:01,2.61,--,1640
2,9456,---,70.8,179,03:12:57,00:03,2.74,--,1634
2,9457,242,70.9,177,03:12:59,00:02,2.88,--,1630
2,9459,242,70.8,175,03:13:01,00:02,2.61,--,1640
2,9461,242,70.9,174,03:13:03,00:02,2.61,--,1636
2,9463,---,70.9,177,03:13:04,00:01,2.61,--,1636
2,9465,---,70.9,177,03:13:07,00:03,2.61,--,1630
2,9467,242,70.8,185,03:13:09,00:02,2.74,--,1634
2,9468,242,70.9,177,03:13:11,00:02,2.61,--,1631
2,9470,242,70.9,181,03:13:13,00:02,2.61,--,1633
2,9472,242,70.9,177,03:13:15,00:02,2.61,--,1630
2,9474,242,70.8,179,03:13:16,00:01,2.74,--,1643
2,9476,242,70.8,179,03:13:18,00:01,2.61,--,1640
2,9478,242,70.9,174,03:13:23,00:04,2.48,--,1631
2,9480,---,70.8,179,03:13:24,00:01,2.74,--,1643
2,9482,242,70.8,179,03:13:27,00:02,2.74,--,1637
2,9484,242,70.8,179,03:13:28,00:01,2.74,--,1640
2,9485,242,70.9,174,03:13:30,00:02,2.61,--,1633
2,9487,---,70.9,177,03:13:32,00:02,2.33,--,1636
2,9489,242,70.9,177,03:13:34,00:02,2.74,--,1630
2,9491,242,70.7,182,03:13:37,00:03,2.61,--,1634
2,9493,242,70.9,174,03:13:39,00:02,2.61,--,1636
2,9494,242,70.9,177,03:13:40,00:01,2.61,--,1633
2,9496,---,70.9,174,03:13:42,00:02,2.33,--,1625
2,9498,---,70.9,174,03:13:44,00:02,2.33,--,1628
2,9500,242,70.7,179,03:13:47,00:03,2.74,--,1634
2,9502,242,70.7,177,03:13:49,00:02,2.33,--,1630
2,9503,242,70.7,179,03:13:50,00:01,2.61,--,1640
2,9505,242,70.7,182,03:13:53,00:02,2.88,--,1637
2,9507,---,70.7,177,03:13:55,00:02,1.42,--,1631
2,9509,242,70.7,177,03:13:57,00:02,2.48,--,1621
2,9511,242,70.7,182,03:13:59,00:02,2.48,--,1637
2,9513,242,70.7,188,03:14:02,00:02,2.33,--,1626
2,9515,---,70.7,177,03:14:04,00:02,2.48,--,1627
2,9517,242,70.7,177,03:14:07,00:03,2.48,--,1627
2,9519,242,70.7,177,03:14:09,00:02,2.61,--,1625
2,9520,242,70.7,177,03:14:11,00:02,2.61,--,1633
2,9522,---,70.7,177,03:14:13,00:02,2.48,--,1630
2,9524,242,70.7,179,03:14:15,00:02,2.48,--,1637
2,9526,242,70.7,177,03:14:17,00:02,2.48,--,1630
2,9527,---,70.7,177,03:14:19,00:02,2.48,--,1633
2,9529,242,70.7,177,03:14:21,00:02,2.74,--,1634
2,9531,---,70.7,177,03:14:23,00:02,2.61,--,1628
2,9533,242,70.7,177,03:14:26,00:03,2.74,--,1627
2,9534,242,70.7,177,03:14:28,00:02,2.61,--,1630
2,9536,242,70.7,188,03:14:29,00:01,2.61,--,1637
2,9538,242,70.7,182,03:14:32,00:02,2.48,--,1637
2,9540,242,70.7,177,03:14:34,00:02,2.61,--,1627
2,9542,242,70.7,177,03:14:38,00:04,2.61,--,1622
2,9544,242,70.7,177,03:14:40,00:02,2.61,--,1628
2,9546,---,70.7,171,03:14:42,00:02,2.48,--,1643
2,9548,---,70.7,177,03:14:44,00:02,2.33,--,1633
2,9550,242,70.7,175,03:14:46,00:02,2.22,--,1631
2,9552,242,70.7,177,03:14:48,00:02,2.61,--,1630
2,9554,---,70.7,179,03:14:50,00:01,2.74,--,1640
2,9556,242,70.7,177,03:14:53,00:03,2.48,--,1633
2,9557,---,70.7,179,03:14:55,00:02,2.74,--,1640
2,9559,242,70.7,179,03:14:57,00:02,2.61,--,1634
2,9561,242,70.7,177,03:14:59,00:02,2.48,--,1636
2,9563,---,70.7,179,03:15:01,00:02,2.88,--,1637
2,9565,242,70.7,185,03:15:03,00:02,2.88,--,1634
2,9566,---,70.7,179,03:15:05,00:02,2.74,--,1640
2,9568,242,70.7,179,03:15:07,00:02,3.03,--,1637
2,9570,242,70.7,180,03:15:09,00:02,2.61,--,1625
2,9572,242,70.7,179,03:15:11,00:02,3.03,--,1637
2,9574,242,70.7,177,03:15:13,00:02,2.61,--,1630
2,9575,---,70.7,175,03:15:15,00:02,2.61,--,1643
2,9577,242,70.5,182,03:15:17,00:02,2.48,--,1637
2,9579,---,70.7,179,03:15:19,00:02,2.48,--,1661
2,9581,---,70.5,182,03:15:22,00:03,2.61,--,1661
2,9583,242,70.7,177,03:15:24,00:02,2.61,--,1631
2,9585,---,70.7,177,03:15:26,00:02,2.74,--,1636
2,9587,242,70.7,177,03:15:28,00:02,2.33,--,1628
2,9588,---,70.5,179,03:15:30,00:02,2.48,--,1640
2,9590,242,70.7,177,03:15:32,00:02,2.48,--,1627
2,9592,242,70.7,179,03:15:34,00:02,2.22,--,1637
2,9594,242,70.5,177,03:15:36,00:02,2.48,--,1627
2,9596,242,70.7,179,03:15:38,00:01,2.22,--,1640
2,9597,---,70.5,177,03:15:40,00:02,2.33,--,1628
2,9599,242,70.5,177,03:15:42,00:02,2.74,--,1634
2,9601,242,70.7,179,03:15:45,00:03,2.48,--,1634
2,9603,242,70.5,179,03:15:47,00:02,2.48,--,1637
2,9605,242,70.7,174,03:15:49,00:02,2.33,--,1630
2,9607,242,70.7,177,03:15:51,00:02,2.61,--,1630
2,9609,---,70.5,185,03:15:53,00:02,2.48,--,1637
2,9611,242,70.7,177,03:15:55,00:02,2.33,--,1627
2,9612,---,70.5,182,03:15:57,00:02,2.48,--,1637
2,9614,---,70.7,177,03:16:00,00:03,2.48,--,1627
2,9616,242,70.7,177,03:16:02,00:02,2.74,--,1630
2,9618,242,70.5,185,03:16:04,00:02,2.61,--,1634
2,9620,242,70.5,182,03:16:06,00:02,2.74,--,1637
2,9622,242,70.5,175,03:16:08,00:02,2.61,--,1643
2,9623,242,70.5,177,03:16:10,00:02,2.74,--,1630
2,9625,---,70.5,179,03:16:12,00:02,2.74,--,1640
2,9627,---,70.5,177,03:16:14,00:02,2.48,--,1634
2,9629,---,70.7,177,03:16:16,00:02,2.48,--,1627
2,9631,242,70.7,177,03:16:19,00:02,2.48,--,1630
2,9633,242,70.5,177,03:16:21,00:02,2.33,--,1630
2,9634,242,70.7,177,03:16:23,00:02,2.48,--,1630
2,9636,242,70.5,177,03:16:25,00:02,2.48,--,1633
2,9638,---,70.5,177,03:16:27,00:02,2.48,--,1633
2,9640,242,70.7,177,03:16:29,00:02,2.61,--,1627
2,9642,---,70.7,177,03:16:32,00:02,2.74,--,1633
2,9644,---,70.7,179,03:16:34,00:02,2.88,--,1643
2,9646,242,70.5,174,03:16:36,00:02,2.33,--,1634
2,9647,242,70.5,179,03:16:38,00:02,3.03,--,1640
2,9649,---,70.5,177,03:16:40,00:02,2.61,--,1633
2,9651,242,70.7,177,03:16:42,00:02,2.61,--,1636
2,9653,---,70.5,175,03:16:44,00:02,2.48,--,1643
2,9655,---,70.5,179,03:16:46,00:02,2.61,--,1637
2,9657,---,70.5,177,03:16:49,00:03,2.61,--,1630
2,9659,242,70.7,177,03:16:51,00:02,2.48,--,1630
2,9661,---,70.7,179,03:16:53,00:02,2.61,--,1643
2,9662,---,70.5,185,03:16:55,00:02,2.33,--,1637
2,9664,242,70.5,177,03:16:57,00:02,2.61,--,1636
2,9666,242,70.7,175,03:16:59,00:02,2.48,--,1643
2,9668,242,70.5,177,03:17:01,00:02,2.88,--,1636
2,9670,242,70.5,179,03:17:03,00:02,2.61,--,1643
2,9672,---,70.7,174,03:17:05,00:02,2.88,--,1636
2,9674,---,70.7,160,03:17:07,00:02,2.08,--,1645
2,9675,242,70.5,170,03:17:10,00:03,2.74,--,1634
2,9677,242,70.5,175,03:17:12,00:02,2.88,--,1640
2,9679,242,70.5,170,03:17:13,00:01,2.88,--,1636
2,9681,242,70.5,175,03:17:15,00:02,3.32,--,1640
2,9682,242,70.5,167,03:17:17,00:02,3.18,--,1640
2,9684,---,70.5,175,03:17:19,00:02,3.18,--,1643
2,9686,---,70.5,175,03:17:21,00:02,2.74,--,1640
2,9688,242,70.5,174,03:17:23,00:02,2.74,--,1636
2,9690,---,70.7,175,03:17:25,00:02,2.48,--,1643
2,9691,242,70.5,185,03:17:27,00:02,2.48,--,1637
2,9693,---,70.5,179,03:17:29,00:02,2.61,--,1640
2,9695,242,70.5,177,03:17:32,00:03,2.88,--,1636
2,9697,242,70.7,177,03:17:34,00:02,2.61,--,1631
2,9699,242,70.5,177,03:17:36,00:02,2.74,--,1633
2,9701,242,70.5,181,03:17:38,00:02,2.48,--,1636
2,9703,242,70.5,175,03:17:40,00:02,2.74,--,1643
2,9704,242,70.5,177,03:17:42,00:02,2.74,--,1636
2,9706,---,70.5,174,03:17:44,00:02,2.88,--,1628
2,9708,---,70.5,177,03:17:46,00:02,2.74,--,1630
2,9710,---,70.5,175,03:17:48,00:01,2.48,--,1643
2,9712,---,70.5,174,03:17:51,00:03,2.74,--,1633
2,9714,---,70.5,185,03:17:53,00:02,2.88,--,1640
2,9716,242,70.5,177,03:17:55,00:02,2.61,--,1633
2,9718,242,70.5,182,03:17:57,00:02,2.88,--,1640
2,9719,---,70.5,185,03:17:59,00:02,2.74,--,1640
2,9721,242,70.5,177,03:18:01,00:02,2.74,--,1633
2,9723,242,70.5,179,03:18:03,00:02,2.48,--,1640
2,9724,242,70.5,177,03:18:04,00:01,2.88,--,1636
2,9726,242,70.5,179,03:18:06,00:01,2.61,--,1643
2,9728,---,70.5,177,03:18:08,00:02,2.48,--,1639
2,9730,---,70.5,175,03:18:10,00:02,2.74,--,1643
2,9731,---,70.5,177,03:18:13,00:03,2.74,--,1634
2,9733,---,70.5,177,03:18:15,00:02,2.74,--,1639
2,9735,---,70.5,174,03:18:17,00:02,2.48,--,1634
2,9737,242,70.5,182,03:18:19,00:02,2.48,--,1637
2,9739,---,70.5,177,03:18:22,00:03,2.33,--,1630
2,9741,242,70.5,177,03:18:24,00:02,2.33,--,1627
2,9742,242,70.5,174,03:18:26,00:02,2.48,--,1633
2,9743,242,70.5,179,03:18:28,00:02,2.74,--,1643
2,9745,242,70.5,185,03:18:30,00:02,2.48,--,1640
2,9747,---,70.5,177,03:18:33,00:02,2.33,--,1636
2,9749,242,70.5,175,03:18:35,00:02,2.61,--,1643
2,9751,---,70.5,174,03:18:37,00:02,2.33,--,1633
2,9753,---,70.5,177,03:18:39,00:02,2.61,--,1634
2,9755,---,70.3,179,03:18:41,00:02,2.61,--,1640
2,9757,242,70.5,179,03:18:44,00:03,2.61,--,1634
2,9759,---,70.5,177,03:18:46,00:02,2.33,--,1630
2,9760,---,70.5,171,03:18:49,00:03,2.33,--,1634
2,9762,242,70.5,174,03:18:51,00:02,2.61,--,1634
2,9764,242,70.3,182,03:18:53,00:02,2.48,--,1640
2,9766,---,70.5,177,03:18:55,00:02,2.48,--,1633
2,9768,242,70.5,174,03:18:57,00:02,2.74,--,1630
2,9770,242,70.5,177,03:18:59,00:02,2.74,--,1639
2,9771,---,70.5,182,03:19:01,00:02,2.61,--,1643
2,9773,242,70.5,177,03:19:03,00:02,2.33,--,1636
2,9775,242,70.5,179,03:19:05,00:02,2.74,--,1637
2,9776,242,70.5,177,03:19:07,00:02,3.03,--,1633
2,9778,242,70.5,174,03:19:09,00:02,2.22,--,1634
2,9780,242,70.3,179,03:19:12,00:03,3.18,--,1637
2,9782,242,70.5,177,03:19:14,00:02,2.22,--,1630
2,9783,---,70.3,179,03:19:15,00:01,2.74,--,1646
2,9785,---,70.3,179,03:19:17,00:02,2.88,--,1643
2,9786,242,70.5,179,03:19:19,00:02,2.61,--,1643
2,9788,242,70.5,182,03:19:21,00:02,2.74,--,1646
2,9790,---,70.5,182,03:19:23,00:02,2.61,--,1643
2,9791,242,70.5,175,03:19:25,00:02,2.61,--,1643
2,9793,242,70.5,175,03:19:27,00:02,2.74,--,1646
2,9795,242,70.5,174,03:19:29,00:02,2.88,--,1636
2,9796,---,70.5,175,03:19:31,00:02,2.74,--,1646
2,9798,242,70.5,177,03:19:33,00:02,2.74,--,1631
2,9799,242,70.5,185,03:19:34,00:01,2.88,--,1664
2,9801,---,70.5,177,03:19:36,00:01,2.88,--,1639
2,9802,242,70.5,177,03:19:39,00:03,2.74,--,1633
2,9804,---,70.5,174,03:19:40,00:01,2.48,--,1636
2,9806,242,70.5,177,03:19:44,00:03,2.74,--,1636
2,9808,---,70.3,185,03:19:46,00:01,3.03,--,1643
2,9809,---,70.5,174,03:19:49,00:03,2.88,--,1631
2,9811,---,70.5,167,03:19:51,00:02,2.88,--,1643
2,9813,---,70.5,177,03:19:53,00:02,2.88,--,1636
2,9814,---,70.5,177,03:19:55,00:02,2.74,--,1633
2,9816,242,70.5,174,03:19:57,00:02,2.88,--,1636
2,9818,242,70.5,177,03:19:59,00:02,2.74,--,1634
2,9819,---,70.5,177,03:20:01,00:02,2.74,--,1636
2,9821,242,70.3,177,03:20:03,00:02,2.74,--,1630
2,9823,---,70.5,175,03:20:05,00:02,2.74,--,1643
2,9824,---,70.3,185,03:20:07,00:02,2.88,--,1640
2,9826,242,70.3,170,03:20:09,00:02,2.22,--,1636
2,9828,---,70.5,166,03:20:11,00:02,2.61,--,1642
2,9829,---,70.5,174,03:20:13,00:02,2.61,--,1625
2,9831,242,70.5,177,03:20:16,00:02,3.03,--,1636
2,9833,242,70.3,179,03:20:18,00:02,2.61,--,1643
2,9834,---,70.3,177,03:20:20,00:02,2.74,--,1636
2,9835,---,70.5,177,03:20:22,00:02,2.74,--,1631
2,9837,242,70.5,179,03:20:24,00:02,2.48,--,1640
2,9838,242,70.3,179,03:20:26,00:02,2.74,--,1643
2,9840,242,70.3,182,03:20:27,00:01,2.48,--,1643
2,9842,242,70.3,179,03:20:29,00:02,2.74,--,1643
2,9844,---,70.3,179,03:20:31,00:02,1.22,--,1640
2,9845,242,70.3,174,03:20:34,00:03,2.48,--,1633
2,9847,242,70.3,182,03:20:35,00:01,2.88,--,1643
2,9848,---,70.5,174,03:20:37,00:02,2.61,--,1639
2,9850,242,70.5,177,03:20:39,00:02,2.74,--,1633
2,9852,242,70.3,179,03:20:41,00:02,2.88,--,1643
2,9853,---,70.5,177,03:20:43,00:02,2.48,--,1639
2,9855,---,70.5,179,03:20:45,00:02,2.48,--,1640
2,9857,242,70.3,182,03:20:47,00:02,3.03,--,1643
2,9858,242,70.5,177,03:20:49,00:02,2.88,--,1639
2,9860,242,70.3,179,03:20:50,00:01,2.61,--,1646
2,9861,242,70.3,179,03:20:52,00:02,2.88,--,1643
2,9863,---,70.3,174,03:20:54,00:02,3.03,--,1645
2,9865,242,70.5,175,03:20:56,00:02,3.03,--,1643
2,9866,242,70.3,182,03:20:57,00:01,2.61,--,1640
2,9868,---,70.5,177,03:20:59,00:01,2.74,--,1639
2,9870,---,70.5,179,03:21:01,00:02,2.74,--,1643
2,9871,242,70.5,179,03:21:03,00:02,3.03,--,1640
2,9873,---,70.5,177,03:21:05,00:02,2.88,--,1633
2,9875,242,70.5,174,03:21:07,00:02,2.88,--,1633
2,9877,242,70.5,185,03:21:08,00:01,2.61,--,1640
2,9878,242,70.5,175,03:21:10,00:01,2.74,--,1643
2,9880,242,70.5,175,03:21:12,00:02,2.74,--,1646
2,9882,---,70.5,179,03:21:13,00:01,2.88,--,1643
2,9883,242,70.5,177,03:21:15,00:01,2.74,--,1633
2,9885,---,70.3,179,03:21:17,00:01,3.03,--,1643
2,9887,242,70.5,179,03:21:19,00:02,3.18,--,1643
2,9889,242,70.5,174,03:21:21,00:02,2.74,--,1639
2,9890,242,70.5,179,03:21:23,00:02,2.61,--,1640
2,9892,242,70.3,177,03:21:25,00:02,2.88,--,1628
2,9894,242,70.3,185,03:21:27,00:02,2.88,--,1640
2,9896,242,70.3,179,03:21:28,00:01,2.61,--,1640
2,9897,---,70.3,179,03:21:30,00:02,2.88,--,1640
2,9899,---,70.5,177,03:21:32,00:02,2.61,--,1634
2,9901,242,70.5,174,03:21:34,00:02,2.48,--,1627
2,9903,242,70.3,179,03:21:37,00:02,2.74,--,1634
2,9905,242,70.3,177,03:21:38,00:01,2.74,--,1633
2,9907,---,70.3,171,03:21:40,00:02,2.48,--,1640
2,9908,242,70.5,177,03:21:42,00:02,2.22,--,1627
2,9910,---,70.3,171,03:21:44,00:02,2.08,--,1640
2,9912,---,70.3,177,03:21:46,00:02,2.74,--,1630
2,9914,---,70.3,174,03:21:48,00:02,2.61,--,1630
2,9916,242,70.3,179,03:21:51,00:02,2.48,--,1640
2,9917,242,70.3,179,03:21:53,00:02,2.74,--,1643
2,9919,242,70.3,179,03:21:55,00:02,2.74,--,1637
2,9921,242,70.3,174,03:21:57,00:02,2.48,--,1633
2,9922,242,70.3,175,03:21:58,00:01,2.48,--,1643
2,9923,242,70.3,175,03:22:00,00:01,2.74,--,1640
2,9925,242,70.3,177,03:22:02,00:02,2.48,--,1630
2,9926,242,70.3,177,03:22:04,00:02,2.61,--,1633
2,9928,242,70.3,174,03:22:06,00:02,2.88,--,1636
2,9930,---,70.3,177,03:22:08,00:02,2.61,--,1633
2,9931,---,70.3,177,03:22:10,00:02,2.74,--,1630
2,9933,---,70.3,179,03:22:12,00:02,2.48,--,1664
2,9935,242,70.3,174,03:22:14,00:02,2.74,--,1634
2,9937,242,70.3,182,03:22:16,00:02,2.88,--,1640
2,9938,242,70.3,175,03:22:18,00:02,2.61,--,1643
2,9940,242,70.3,177,03:22:20,00:02,2.88,--,1628
2,9942,242,70.3,179,03:22:22,00:02,2.74,--,1643
2,9943,---,70.3,177,03:22:24,00:02,2.74,--,1633
2,9945,---,70.3,177,03:22:26,00:02,2.74,--,1630
2,9947,242,70.3,179,03:22:28,00:02,2.74,--,1640
2,9949,242,70.3,177,03:22:30,00:02,2.48,--,1633
2,9950,---,70.3,171,03:22:32,00:02,2.88,--,1643
2,9952,---,70.3,177,03:22:34,00:02,2.74,--,1630
2,9953,242,70.3,177,03:22:36,00:02,2.61,--,1628
2,9955,---,70.3,179,03:22:38,00:02,2.74,--,1640
2,9957,242,70.3,174,03:22:40,00:02,2.88,--,1636
2,9958,---,70.3,177,03:22:42,00:02,2.61,--,1633
2,9960,---,70.3,171,03:22:44,00:02,2.88,--,1640
2,9962,242,70.3,177,03:22:46,00:02,2.48,--,1634
2,9964,242,70.3,185,03:22:48,00:02,2.88,--,1637
2,9965,242,70.3,177,03:22:50,00:01,2.88,--,1628
2,9967,242,70.3,179,03:22:52,00:02,3.03,--,1643
2,9969,242,70.3,182,03:22:56,00:04,2.61,--,1640
2,9971,242,70.3,174,03:22:58,00:02,2.74,--,1636
2,9972,---,70.3,177,03:23:00,00:02,2.61,--,1633
2,9974,242,70.3,174,03:23:02,00:02,2.48,--,1636
2,9976,---,70.3,177,03:23:04,00:02,2.74,--,1638
2,9978,242,70.3,177,03:23:08,00:04,2.74,--,1630
2,9979,242,70.3,177,03:23:10,00:02,3.03,--,1634
2,9981,---,70.3,179,03:23:12,00:02,2.48,--,1640
2,9982,242,70.3,177,03:23:14,00:02,2.61,--,1630
2,9983,---,70.3,171,03:23:16,00:02,2.88,--,1640
2,9985,242,70.3,174,03:23:18,00:02,2.61,--,1630
2,9987,242,70.3,177,03:23:20,00:02,2.88,--,1630
2,9988,---,70.3,177,03:23:22,00:02,0.27,--,1633
2,9990,242,70.3,174,03:23:24,00:02,0.67,--,1630
2,9992,---,70.3,182,03:23:26,00:02,2.88,--,1637
2,9994,242,70.3,177,03:23:29,00:03,2.61,--,1627
2,9995,---,70.3,179,03:23:30,00:01,2.48,--,1640
2,9997,---,70.3,179,03:23:33,00:03,2.48,--,1634
2,9999,---,70.3,182,03:23:35,00:02,2.61,--,1637
2,|,---,70.3,185,03:23:37,00:02,2.74,--,1640
2,|,242,70.3,177,03:23:39,00:02,2.61,--,1628
2,|,242,70.3,179,03:23:41,00:02,2.33,--,1640
2,|,242,70.3,175,03:23:43,00:02,2.74,--,1643
2,|,---,70.3,177,03:23:45,00:02,2.74,--,1633
2,|,---,70.3,179,03:23:47,00:02,2.88,--,1640
2,|,---,70.3,175,03:23:49,00:02,2.61,--,1640
2,|,242,70.3,177,03:23:51,00:02,2.74,--,1631
2,|,---,70.5,174,03:23:53,00:02,2.61,--,1628
2,|,242,70.3,177,03:23:55,00:02,2.61,--,1633
2,|,---,70.3,177,03:23:59,00:04,2.61,--,1653
2,|,242,70.3,177,03:24:02,00:02,2.74,--,1636
2,|,242,70.3,179,03:24:03,00:01,2.88,--,1643
2,|,---,70.5,174,03:24:05,00:02,2.61,--,1636
2,|,242,70.5,177,03:24:07,00:02,2.61,--,1636
2,|,242,70.3,179,03:24:10,00:02,2.48,--,1637
2,|,---,70.3,171,03:24:11,00:01,2.61,--,1643
2,|,242,70.3,179,03:24:14,00:02,2.33,--,1634
2,|,---,70.3,177,03:24:16,00:02,2.74,--,1639
2,|,---,70.3,177,03:24:18,00:02,2.61,--,1633
2,|,242,70.3,177,03:24:20,00:02,2.74,--,1633
2,|,---,70.3,174,03:24:22,00:02,2.74,--,1636
2,|,242,70.3,179,03:24:24,00:02,2.61,--,1637
2,|,242,70.3,177,03:24:26,00:02,3.32,--,1636
2,|,---,70.3,177,03:24:28,00:02,2.88,--,1631
2,|,---,70.3,177,03:24:30,00:02,2.61,--,1628
2,|,242,70.3,182,03:24:32,00:01,2.33,--,1643
2,|,242,70.3,174,03:24:34,00:01,2.74,--,1639
2,|,242,70.3,171,03:24:36,00:02,3.03,--,1640
2,|,---,70.3,179,03:24:38,00:02,3.18,--,1640
2,|,---,70.3,177,03:24:40,00:02,2.88,--,1628
2,|,242,70.3,185,03:24:42,00:02,2.61,--,1640
2,|,242,70.3,182,03:24:44,00:02,0.10,--,1640
2,|,---,70.3,177,03:24:46,00:02,2.88,--,1636
2,|,---,70.3,182,03:24:48,00:02,2.74,--,1640
2,|,242,70.3,175,03:24:50,00:01,2.74,--,1643
2,|,242,70.3,179,03:24:52,00:02,2.74,--,1643
2,|,---,70.3,185,03:24:54,00:02,0.86,--,1640
2,|,242,70.3,177,03:24:56,00:02,2.74,--,1630
2,|,---,70.3,175,03:24:58,00:02,2.88,--,1643
2,|,---,70.3,179,03:25:00,00:02,2.88,--,1640
2,|,---,70.3,174,03:25:02,00:02,2.48,--,1636
2,|,---,70.3,162,03:25:04,00:02,2.33,--,1636
2,|,242,70.3,182,03:25:09,00:05,2.48,--,1637
2,|,242,70.3,177,03:25:10,00:01,2.61,--,1633
2,|,242,70.3,175,03:25:12,00:01,2.88,--,1640
2,|,---,70.3,179,03:25:14,00:02,2.74,--,1643
2,|,242,70.3,177,03:25:16,00:02,2.88,--,1636
2,|,242,70.5,179,03:25:19,00:03,2.88,--,1640
2,|,---,70.3,177,03:25:22,00:03,0.07,--,1633
2,|,242,70.3,179,03:25:24,00:02,2.74,--,1640
2,|,242,70.3,179,03:25:28,00:04,2.74,--,1637
2,|,---,70.3,182,03:25:30,00:02,2.74,--,1637
2,|,---,70.3,177,03:25:32,00:02,2.61,--,1631
2,|,---,70.3,177,03:25:34,00:02,2.61,--,1628
2,|,---,70.3,175,03:25:38,00:04,2.74,--,1640
2,|,242,70.3,174,03:25:40,00:02,2.61,--,1633
2,|,242,70.3,177,03:25:42,00:02,2.48,--,1633
2,|,242,70.3,177,03:25:44,00:02,2.61,--,1633
2,|,---,70.3,175,03:25:46,00:02,2.48,--,1640
2,|,242,70.3,175,03:25:48,00:02,2.74,--,1640
2,|,242,70.3,179,03:25:50,00:02,2.74,--,1640
2,|,---,70.3,179,03:25:52,00:02,2.61,--,1640
2,|,---,70.3,179,03:25:54,00:02,2.74,--,1637
2,|,---,70.3,174,03:25:57,00:02,2.48,--,1630
2,|,---,70.3,185,03:25:59,00:02,2.22,--,1637
2,|,242,70.3,174,03:26:01,00:02,2.74,--,1634
2,|,242,70.3,179,03:26:03,00:02,2.74,--,1640
2,|,---,70.1,179,03:26:05,00:02,0.10,--,1640
2,|,242,70.3,171,03:26:07,00:02,2.61,--,1637
2,|,---,70.3,182,03:26:09,00:02,2.74,--,1664
2,|,242,70.3,177,03:26:11,00:02,2.61,--,1630
2,|,242,70.3,182,03:26:13,00:02,2.48,--,1637
2,|,---,70.3,174,03:26:15,00:02,2.88,--,1633
2,|,---,70.3,179,03:26:17,00:02,2.48,--,1637
2,|,242,70.3,175,03:26:20,00:02,2.61,--,1637
2,|,242,70.3,182,03:26:22,00:02,2.48,--,1643
2,|,242,70.3,174,03:26:23,00:01,2.88,--,1639
2,|,242,70.3,175,03:26:25,00:02,2.88,--,1643
2,|,---,70.1,182,03:26:27,00:02,2.74,--,1643
2,|,242,70.1,179,03:26:29,00:02,2.74,--,1643
2,|,---,70.3,177,03:26:31,00:02,2.22,--,1625
2,|,---,70.3,177,03:26:33,00:02,2.33,--,1628
2,|,242,70.3,177,03:26:35,00:02,2.61,--,1628
2,|,---,70.3,174,03:26:37,00:02,2.61,--,1633
2,|,242,70.1,171,03:26:39,00:02,2.61,--,1643
2,|,242,70.3,179,03:26:41,00:02,2.88,--,1643
2,|,242,70.3,174,03:26:43,00:02,2.88,--,1639
2,|,242,70.3,174,03:26:45,00:02,2.74,--,1636
2,|,242,70.3,177,03:26:47,00:02,2.88,--,1636
2,|,---,70.1,179,03:26:48,00:01,3.03,--,1643
2,|,---,70.1,185,03:26:51,00:03,2.61,--,1640
2,|,---,70.1,177,03:26:53,00:02,2.74,--,1631
2,|,242,70.1,179,03:26:55,00:02,3.03,--,1640
2,|,242,70.1,182,03:26:57,00:02,3.03,--,1643
2,|,---,70.3,177,03:26:59,00:02,2.88,--,1636
2,|,242,70.1,177,03:27:01,00:02,2.74,--,1633
2,|,242,70.3,177,03:27:03,00:02,2.61,--,1638
2,|,242,70.3,174,03:27:04,00:01,2.74,--,1639
2,|,242,70.1,182,03:27:06,00:01,2.33,--,1640
2,|,242,70.3,179,03:27:08,00:01,2.88,--,1643
2,|,---,70.3,174,03:27:12,00:03,2.33,--,1636
2,|,242,70.1,175,03:27:14,00:02,2.74,--,1640
2,|,---,70.3,174,03:27:16,00:02,2.74,--,1636
2,|,242,70.3,177,03:27:18,00:02,2.74,--,1636
2,|,---,70.1,179,03:27:20,00:02,2.88,--,1643
2,|,242,70.3,174,03:27:22,00:02,2.48,--,1636
2,|,---,70.3,177,03:27:24,00:02,2.33,--,1636
2,|,242,70.1,179,03:27:26,00:02,3.03,--,1643
2,|,---,70.3,177,03:27:28,00:02,2.88,--,1636
2,|,---,70.1,179,03:27:32,00:04,2.74,--,1643
2,|,---,70.1,179,03:27:34,00:02,2.88,--,1640
2,|,---,70.1,175,03:27:36,00:02,2.74,--,1643
2,|,242,70.1,177,03:27:38,00:02,2.88,--,1639
2,|,242,70.1,174,03:27:41,00:02,2.74,--,1633
2,|,242,70.1,174,03:27:43,00:02,2.74,--,1636
2,|,---,70.1,182,03:27:44,00:01,2.88,--,1646
2,|,---,70.1,174,03:27:46,00:02,2.88,--,1639
2,|,---,70.1,177,03:27:48,00:02,2.61,--,1639
2,|,---,70.1,175,03:27:50,00:02,2.74,--,1646
2,|,242,70.1,177,03:27:52,00:02,2.48,--,1636
2,|,---,70.1,179,03:27:54,00:02,2.61,--,1643
2,|,242,70.1,182,03:27:56,00:02,2.61,--,1643
2,|,242,70.1,177,03:27:58,00:02,2.88,--,1636
2,|,---,70.1,182,03:28:00,00:02,2.88,--,1643
2,|,242,70.1,177,03:28:02,00:02,2.74,--,1636
2,|,---,70.1,177,03:28:04,00:02,2.74,--,1639
2,|,242,70.1,179,03:28:06,00:02,2.88,--,1643
2,|,242,70.1,182,03:28:08,00:02,2.74,--,1640
2,|,---,70.1,185,03:28:10,00:02,2.88,--,1640
2,|,242,70.1,175,03:28:12,00:02,2.61,--,1643
2,|,242,70.1,175,03:28:14,00:02,2.48,--,1643
2,|,---,70.1,179,03:28:16,00:02,2.74,--,1640
2,|,242,70.1,179,03:28:18,00:02,2.74,--,1664
2,|,---,70.1,179,03:28:20,00:02,2.61,--,1643
2,|,242,70.1,177,03:28:22,00:02,2.48,--,1636
2,|,242,70.1,174,03:28:24,00:02,2.61,--,1633
2,|,242,70.1,179,03:28:26,00:02,2.74,--,1643
2,|,---,70.1,182,03:28:27,00:01,2.74,--,1640
2,|,242,70.1,179,03:28:30,00:02,2.88,--,1637
2,|,242,70.1,179,03:28:31,00:01,2.74,--,1643
2,|,242,70.1,171,03:28:33,00:01,2.61,--,1643
2,|,---,70.1,175,03:28:35,00:02,2.48,--,1643
2,|,242,70.3,177,03:28:37,00:02,2.48,--,1639
2,|,242,70.1,175,03:28:39,00:02,2.88,--,1643
2,|,242,70.1,177,03:28:41,00:02,2.61,--,1636
2,|,---,70.1,177,03:28:43,00:02,2.61,--,1633
2,|,---,70.1,177,03:28:46,00:03,2.74,--,1636
2,|,---,70.1,179,03:28:48,00:02,2.61,--,1637
2,|,---,70.1,179,03:28:50,00:02,2.61,--,1640
2,|,242,70.1,177,03:28:52,00:02,2.74,--,1633
2,|,242,70.1,177,03:28:54,00:02,2.48,--,1636
2,|,---,70.1,177,03:28:56,00:02,2.74,--,1633
2,|,242,70.1,177,03:28:58,00:02,2.61,--,1628
2,|,242,70.1,175,03:29:00,00:02,2.74,--,1640
2,|,242,70.1,179,03:29:02,00:02,2.48,--,1640
2,|,---,70.1,179,03:29:04,00:02,2.74,--,1643
2,|,---,70.1,182,03:29:06,00:02,2.74,--,1640
2,|,---,70.1,174,03:29:08,00:02,2.74,--,1633
2,|,242,70.1,179,03:29:10,00:02,2.88,--,1640
2,|,242,70.1,175,03:29:12,00:01,2.61,--,1667
2,|,242,70.1,175,03:29:14,00:02,2.74,--,1643
2,|,242,70.1,177,03:29:16,00:02,2.48,--,1636
2,|,242,70.1,179,03:29:18,00:02,2.74,--,1640
2,|,242,70.1,174,03:29:20,00:02,2.74,--,1636
2,|,---,70.1,177,03:29:22,00:02,2.48,--,1633
2,|,242,70.1,179,03:29:24,00:02,2.48,--,1643
2,|,---,70.1,177,03:29:26,00:02,2.61,--,1633
2,|,242,70.1,174,03:29:28,00:02,2.74,--,1636
2,|,---,70.1,179,03:29:30,00:02,2.88,--,1643
2,|,---,70.1,177,03:29:32,00:02,2.74,--,1633
2,|,242,70.1,174,03:29:34,00:02,2.61,--,1634
2,|,---,70.1,185,03:29:36,00:02,2.88,--,1640
2,|,---,70.1,175,03:29:38,00:01,2.74,--,1646
2,|,---,70.1,182,03:29:40,00:01,2.88,--,1643
2,|,---,70.1,177,03:29:43,00:02,2.33,--,1630
2,|,242,70.1,179,03:29:45,00:02,2.61,--,1640
2,|,242,70.1,174,03:29:47,00:02,2.61,--,1636
2,|,242,70.1,179,03:29:49,00:02,2.61,--,1643
2,|,---,70.1,179,03:29:51,00:02,0.07,--,1643
2,|,242,70.1,177,03:29:53,00:02,2.74,--,1633
2,|,---,70.1,177,03:29:55,00:02,2.74,--,1633
2,|,242,70.1,175,03:29:57,00:02,2.61,--,1643
2,|,242,70.1,185,03:29:59,00:02,2.88,--,1640
2,|,---,70.1,177,03:30:01,00:02,2.61,--,1633
2,|,---,70.1,179,03:30:03,00:02,2.88,--,1640
2,|,---,70.1,177,03:30:06,00:03,2.48,--,1633
2,|,---,70.1,179,03:30:08,00:02,2.74,--,1643
2,|,242,70.1,175,03:30:10,00:02,2.74,--,1640
2,|,242,70.1,174,03:30:12,00:02,2.48,--,1636
2,|,242,70.1,175,03:30:14,00:02,2.48,--,1640
2,|,242,70.1,177,03:30:16,00:02,2.61,--,1636
2,|,242,70.1,179,03:30:18,00:02,2.48,--,1643
2,|,---,70.1,177,03:30:20,00:02,2.88,--,1633
2,|,242,70.1,174,03:30:22,00:02,2.48,--,1636
2,|,242,70.1,179,03:30:24,00:01,2.61,--,1643
2,|,---,70.1,179,03:30:27,00:02,2.88,--,1643
2,|,---,70.1,179,03:30:29,00:02,2.61,--,1640
2,|,242,70.1,179,03:30:31,00:02,2.48,--,1640
2,|,---,70.1,179,03:30:33,00:02,2.74,--,1643
2,|,242,70.1,177,03:30:35,00:02,2.74,--,1633
2,|,---,70.1,174,03:30:37,00:02,2.61,--,1639
2,|,242,70.1,177,03:30:39,00:02,2.61,--,1633
2,|,---,70.1,182,03:30:41,00:02,2.61,--,1640
2,|,242,70.1,182,03:30:43,00:02,2.61,--,1640
2,|,242,70.1,177,03:30:45,00:02,2.61,--,1639
2,|,242,70.1,185,03:30:47,00:02,2.88,--,1637
2,|,242,70.1,175,03:30:49,00:02,2.88,--,1640
2,|,242,70.1,185,03:30:50,00:01,2.74,--,1643
2,|,242,70.1,174,03:30:52,00:01,2.74,--,1636
2,|,242,70.1,177,03:30:54,00:01,2.74,--,1633
2,|,242,70.1,179,03:30:56,00:01,2.74,--,1643
2,|,242,70.1,182,03:30:58,00:02,2.61,--,1643
2,|,242,70.1,167,03:31:00,00:02,2.88,--,1643
2,|,---,70.1,174,03:31:02,00:02,2.48,--,1631
2,|,242,70.1,174,03:31:04,00:02,2.48,--,1633
2,|,242,70.1,177,03:31:08,00:04,2.61,--,1636
2,|,---,70.1,179,03:31:10,00:02,2.61,--,1643
2,|,---,70.1,174,03:31:12,00:02,2.74,--,1636
2,|,---,70.1,177,03:31:14,00:02,2.33,--,1633
2,|,---,70.1,177,03:31:16,00:02,2.61,--,1633
2,|,242,70.1,174,03:31:18,00:02,2.48,--,1639
2,|,242,70.1,177,03:31:20,00:02,2.61,--,1636
2,|,---,70.1,179,03:31:22,00:02,2.61,--,1640
2,|,242,70.1,177,03:31:24,00:02,2.61,--,1636
2,|,---,70.1,185,03:31:26,00:02,2.74,--,1643
2,|,242,70.1,179,03:31:28,00:02,2.61,--,1643
2,|,---,70.1,179,03:31:30,00:02,2.74,--,1640
2,|,242,70.1,177,03:31:32,00:02,2.48,--,1630
2,|,242,70.1,185,03:31:34,00:02,2.74,--,1640
2,|,242,70.1,182,03:31:36,00:02,2.88,--,1640
2,|,---,70.1,177,03:31:38,00:02,2.61,--,1630
2,|,---,70.1,174,03:31:40,00:02,2.61,--,1633
2,|,242,70.1,177,03:31:42,00:02,2.74,--,1639
2,|,242,70.1,177,03:31:44,00:02,2.74,--,1636
2,|,---,70.1,182,03:31:46,00:02,2.61,--,1643
2,|,---,70.1,179,03:31:48,00:02,2.61,--,1643
2,|,---,70.1,179,03:31:50,00:02,2.74,--,1637
2,|,---,70.1,179,03:31:52,00:02,2.74,--,1640
2,|,---,70.1,182,03:31:56,00:04,2.74,--,1643
2,|,242,70.1,177,03:31:58,00:02,2.74,--,1625
2,|,---,70.1,182,03:32:00,00:02,2.22,--,1643
2,|,---,70.1,177,03:32:02,00:02,2.74,--,1636
2,|,242,70.1,177,03:32:04,00:02,2.61,--,1630
2,|,---,70.1,177,03:32:06,00:02,2.74,--,1636
2,|,242,70.1,177,03:32:08,00:02,2.61,--,1633
2,|,---,70.1,175,03:32:10,00:02,2.74,--,1643
2,|,---,70.1,182,03:32:12,00:02,2.74,--,1640
2,|,242,70.1,177,03:32:15,00:03,2.61,--,1634
2,|,242,70.1,182,03:32:16,00:01,2.61,--,1640
2,|,242,70.1,171,03:32:18,00:02,2.88,--,1643
2,|,242,70.1,177,03:32:20,00:02,2.61,--,1628
2,|,---,70.1,185,03:32:22,00:02,2.88,--,1640
2,|,242,70.1,179,03:32:24,00:02,2.61,--,1640
2,|,242,70.1,177,03:32:26,00:02,2.61,--,1636
2,|,242,70.1,177,03:32:28,00:02,2.48,--,1636
2,|,---,70.1,182,03:32:29,00:01,2.48,--,1643
2,|,242,70.1,177,03:32:32,00:03,2.74,--,1630
2,|,---,70.1,182,03:32:33,00:01,2.61,--,1643
2,|,---,70.1,177,03:32:36,00:03,2.61,--,1634
2,|,242,70.1,175,03:32:38,00:02,2.74,--,1637
2,|,242,70.1,175,03:32:40,00:02,2.74,--,1643
2,|,---,70.1,179,03:32:42,00:02,2.61,--,1640
2,|,242,70.1,174,03:32:44,00:02,2.61,--,1636
2,|,---,70.3,177,03:32:46,00:02,2.74,--,1636
2,|,---,70.1,177,03:32:48,00:02,2.22,--,1633
2,|,---,70.1,175,03:32:50,00:02,2.48,--,1640
2,|,---,70.1,179,03:32:52,00:02,2.48,--,1640
2,|,242,70.1,177,03:32:54,00:02,2.88,--,1633
2,|,---,70.1,185,03:32:56,00:02,2.61,--,1640
2,|,242,70.1,179,03:33:00,00:04,2.48,--,1643
2,|,---,70.1,177,03:33:02,00:02,2.61,--,1636
2,|,242,70.3,175,03:33:04,00:02,2.61,--,1637
2,|,242,70.3,179,03:33:06,00:02,2.48,--,1643
2,|,---,70.1,182,03:33:08,00:02,2.74,--,1664
2,|,---,70.3,174,03:33:10,00:02,2.61,--,1636
2,|,---,70.1,171,03:33:12,00:02,2.74,--,1640
2,|,242,70.1,182,03:33:14,00:02,2.88,--,1643
2,|,242,70.1,179,03:33:16,00:02,2.74,--,1643
2,|,---,70.1,179,03:33:18,00:02,2.74,--,1640
2,|,---,70.1,175,03:33:20,00:02,2.61,--,1643
2,|,242,70.1,174,03:33:22,00:02,2.74,--,1636
2,|,242,70.1,177,03:33:24,00:01,2.48,--,1633
2,|,242,70.1,177,03:33:26,00:02,2.74,--,1636
2,|,---,70.1,182,03:33:28,00:02,2.74,--,1640
2,|,242,70.1,177,03:33:30,00:02,2.74,--,1633
2,|,242,70.1,177,03:33:32,00:01,2.74,--,1636
2,|,242,70.1,179,03:33:34,00:02,2.88,--,1643
2,|,242,70.1,174,03:33:36,00:02,2.61,--,1642
2,|,---,70.1,179,03:33:38,00:02,2.61,--,1643
2,|,242,70.1,177,03:33:40,00:02,2.74,--,1636
2,|,242,70.1,179,03:33:41,00:01,1.22,--,1643
2,|,242,70.1,182,03:33:43,00:01,2.74,--,1643
2,|,---,70.1,177,03:33:45,00:02,2.61,--,1636
2,|,242,70.1,177,03:33:47,00:02,2.48,--,1636
2,|,242,70.1,177,03:33:49,00:02,2.74,--,1636
2,|,242,70.1,177,03:33:51,00:02,2.48,--,1628
2,|,242,70.1,177,03:33:52,00:01,2.74,--,1639
2,|,242,70.1,177,03:33:55,00:03,2.48,--,1636
2,|,242,70.1,182,03:33:56,00:01,2.61,--,1640
2,|,---,70.1,174,03:33:58,00:02,2.48,--,1636
2,|,242,70.1,179,03:34:00,00:02,2.61,--,1640
2,|,242,70.1,177,03:34:02,00:01,2.61,--,1633
2,|,242,70.1,177,03:34:04,00:01,2.88,--,1639
2,|,242,70.1,177,03:34:06,00:02,2.61,--,1636
2,|,242,70.1,177,03:34:08,00:02,2.61,--,1636
2,|,242,70.1,185,03:34:10,00:02,2.88,--,1643
2,|,---,70.1,179,03:34:12,00:02,2.61,--,1643
2,|,242,70.1,177,03:34:14,00:02,2.48,--,1636
2,|,242,70.1,182,03:34:15,00:01,2.61,--,1643
2,|,242,70.1,177,03:34:18,00:02,2.61,--,1631
2,|,---,70.1,182,03:34:20,00:02,2.74,--,1640
2,|,242,70.1,177,03:34:22,00:02,2.61,--,1636
2,|,---,70.1,174,03:34:24,00:02,2.61,--,1628
2,|,242,70.1,182,03:34:26,00:02,2.48,--,1643
2,|,---,70.1,167,03:34:27,00:01,2.61,--,1646
2,|,242,70.1,177,03:34:30,00:03,2.61,--,1636
2,|,242,70.1,177,03:34:32,00:02,2.74,--,1636
2,|,---,70.1,174,03:34:34,00:02,2.48,--,1633
2,|,---,70.1,177,03:34:36,00:02,2.61,--,1630
2,|,242,70.1,175,03:34:40,00:04,2.61,--,1640
2,|,---,70.1,177,03:34:42,00:02,2.74,--,1639
2,|,---,70.1,177,03:34:44,00:02,2.74,--,1633
2,|,242,70.1,177,03:34:46,00:02,2.48,--,1633
2,|,---,70.1,179,03:34:48,00:02,2.48,--,1646
2,|,---,70.1,177,03:34:50,00:02,2.61,--,1636
2,|,242,70.1,174,03:34:53,00:03,2.74,--,1634
2,|,242,70.1,177,03:34:54,00:01,2.74,--,1639
2,|,---,70.1,179,03:34:57,00:02,2.61,--,1640
2,|,---,70.1,177,03:34:59,00:02,2.22,--,1653
2,|,242,70.1,177,03:35:01,00:02,2.61,--,1636
2,|,---,70.1,174,03:35:03,00:02,2.74,--,1633
2,|,242,70.1,177,03:35:05,00:02,2.74,--,1636
2,|,---,70.1,177,03:35:07,00:02,2.61,--,1633
2,|,---,70.1,179,03:35:09,00:02,2.61,--,1637
2,|,---,70.1,177,03:35:12,00:02,2.61,--,1633
2,|,242,70.1,171,03:35:14,00:02,2.61,--,1637
2,|,242,70.1,177,03:35:16,00:02,2.74,--,1636
2,|,242,70.1,174,03:35:18,00:02,2.74,--,1633
2,|,242,70.1,177,03:35:20,00:02,2.74,--,1660
2,|,242,70.1,175,03:35:22,00:02,2.74,--,1643
2,|,---,70.1,175,03:35:24,00:02,2.88,--,1646
2,|,242,70.1,177,03:35:26,00:02,3.03,--,1624
2,|,---,70.1,174,03:35:28,00:02,2.74,--,1631
2,|,242,70.1,164,03:35:30,00:02,2.22,--,1640
2,|,---,70.1,127,03:35:32,00:01,0.70,--,1652
2,|,242,70.1,134,03:35:34,00:02,2.33,--,1647
2,|,---,70.1,130,03:35:36,00:02,2.74,--,1658
2,|,242,70.1,134,03:35:39,00:03,2.61,--,1648
2,|,---,70.1,134,03:35:41,00:02,2.33,--,1656
2,|,---,70.1,130,03:35:44,00:03,2.22,--,1652
2,|,242,70.1,130,03:35:46,00:02,2.33,--,1643
2,|,---,70.1,134,03:35:48,00:02,2.33,--,1649
2,|,242,70.1,134,03:35:51,00:03,2.48,--,1646
2,|,242,70.1,130,03:35:53,00:02,2.33,--,1651
2,|,242,70.1,130,03:35:55,00:02,2.48,--,1647
2,|,---,70.1,130,03:35:57,00:02,2.33,--,1647
2,|,242,70.1,130,03:36:00,00:03,2.48,--,1648
2,|,---,70.1,134,03:36:02,00:02,2.74,--,1660
2,|,---,70.1,134,03:36:04,00:02,2.22,--,1646
2,|,242,70.1,134,03:36:07,00:03,2.48,--,1637
2,|,242,70.1,138,03:36:08,00:01,2.48,--,1658
2,|,---,70.1,123,03:36:11,00:03,2.22,--,1639
2,|,242,70.1,119,03:36:13,00:02,3.79,--,1638
2,|,242,70.1,130,03:36:15,00:02,3.03,--,1661
2,|,---,70.3,127,03:36:16,00:01,2.74,--,1654
2,|,242,70.1,130,03:36:18,00:02,2.88,--,1647
2,|,242,70.3,127,03:36:20,00:02,2.74,--,1650
2,|,---,70.1,130,03:36:22,00:02,2.74,--,1650
2,|,---,70.1,130,03:36:24,00:02,2.74,--,1652
2,|,---,70.3,130,03:36:26,00:02,2.88,--,1647
2,|,---,70.3,130,03:36:28,00:02,2.61,--,1643
2,|,242,70.1,134,03:36:30,00:02,2.88,--,1655
2,|,242,70.3,130,03:36:32,00:02,2.74,--,1651
2,|,242,70.3,127,03:36:34,00:02,2.74,--,1647
2,|,242,70.3,130,03:36:36,00:02,2.74,--,1655
2,|,---,70.1,130,03:36:38,00:02,2.61,--,1654
2,|,242,70.3,130,03:36:41,00:03,2.74,--,1647
2,|,242,70.3,130,03:36:42,00:01,2.61,--,1650
2,|,242,70.1,117,03:36:44,00:02,4.31,--,1658
2,|,242,70.3,119,03:36:45,00:01,2.08,--,1653
2,|,242,70.3,116,03:36:48,00:02,2.61,--,1650
2,|,242,70.3,119,03:36:50,00:02,2.33,--,1649
2,|,242,70.3,127,03:36:52,00:02,2.33,--,1651
2,|,---,70.1,130,03:36:54,00:02,2.61,--,1673
2,|,---,70.1,127,03:36:56,00:02,2.61,--,1655
2,|,---,70.3,130,03:36:59,00:03,2.48,--,1647
2,|,242,70.1,127,03:37:01,00:02,2.74,--,1651
2,|,242,70.3,130,03:37:03,00:02,2.48,--,1650
2,|,242,70.1,130,03:37:05,00:02,2.74,--,1651
2,|,---,70.3,127,03:37:07,00:02,2.61,--,1646
2,|,242,70.1,127,03:37:09,00:02,2.48,--,1658
2,|,242,70.1,112,03:37:11,00:02,2.48,--,1653
2,|,242,70.1,130,03:37:12,00:01,3.18,--,1646
2,|,242,70.1,153,03:37:14,00:02,2.88,--,1646
2,|,---,70.1,160,03:37:17,00:02,1.97,--,1640
2,|,242,70.1,177,03:37:19,00:02,2.33,--,1617
2,|,242,70.1,179,03:37:22,00:03,2.22,--,1631
2,|,242,70.1,174,03:37:24,00:02,0.37,--,1636
2,|,242,70.1,175,03:37:26,00:02,2.48,--,1640
2,|,242,70.1,177,03:37:29,00:03,2.48,--,1625
2,|,242,70.1,174,03:37:31,00:02,2.08,--,1630
2,|,---,70.1,175,03:37:33,00:02,2.08,--,1640
2,|,242,70.1,182,03:37:36,00:03,2.48,--,1634
2,|,---,70.1,182,03:37:38,00:02,2.48,--,1634
2,|,---,70.1,177,03:37:41,00:03,0.43,--,1621
2,|,---,70.1,177,03:37:43,00:02,2.48,--,1618
2,|,242,70.1,177,03:37:46,00:03,2.61,--,1627
2,|,242,70.1,177,03:37:48,00:02,2.33,--,1630
2,|,---,70.1,177,03:37:50,00:02,2.48,--,1633
2,|,---,70.1,174,03:37:52,00:02,1.63,--,1618
2,|,242,70.1,177,03:37:55,00:02,2.48,--,1630
2,|,---,70.1,174,03:37:57,00:02,2.08,--,1633
2,|,---,70.1,179,03:37:59,00:02,2.61,--,1637
2,|,242,70.1,181,03:38:02,00:03,2.48,--,1621
2,|,---,70.1,177,03:38:04,00:02,2.22,--,1633
2,|,---,70.1,177,03:38:06,00:02,2.33,--,1627
2,|,---,70.1,177,03:38:09,00:03,2.48,--,1627
2,|,242,70.1,177,03:38:11,00:02,2.22,--,1621
2,|,---,70.1,177,03:38:16,00:05,2.61,--,1636
2,|,---,70.1,177,03:38:18,00:02,0.82,--,1631
2,|,242,70.1,177,03:38:21,00:03,2.48,--,1631
2,|,242,70.1,177,03:38:25,00:04,2.48,--,1628
2,|,---,70.1,185,03:38:28,00:03,2.33,--,1634
2,|,242,70.1,174,03:38:30,00:02,2.33,--,1624
2,|,242,70.1,177,03:38:32,00:02,2.48,--,1630
2,|,---,70.1,175,03:38:35,00:03,2.33,--,1637
2,|,---,70.1,171,03:38:37,00:02,2.48,--,1623
2,|,242,70.1,177,03:38:40,00:03,2.33,--,1624
2,|,242,70.1,177,03:38:42,00:02,2.48,--,1634
2,|,---,70.1,179,03:38:44,00:02,2.33,--,1643
2,|,242,70.1,177,03:38:47,00:03,2.48,--,1631
2,|,242,70.1,175,03:38:48,00:01,2.33,--,1640
2,|,242,70.1,179,03:38:50,00:02,2.33,--,1640
2,|,242,70.1,182,03:38:53,00:03,2.48,--,1634
2,|,242,70.1,185,03:38:55,00:02,2.48,--,1637
2,|,---,70.1,177,03:38:57,00:02,2.33,--,1633
2,|,---,70.1,177,03:38:59,00:02,2.48,--,1634
2,|,242,70.1,179,03:39:02,00:03,2.22,--,1637
2,|,242,70.1,179,03:39:04,00:02,2.48,--,1637
2,|,242,70.1,174,03:39:06,00:02,2.48,--,1630
2,|,242,70.1,177,03:39:08,00:02,2.48,--,1636
2,|,242,70.1,182,03:39:10,00:02,2.22,--,1637
2,|,242,70.1,177,03:39:12,00:02,2.33,--,1636
2,|,242,70.1,177,03:39:14,00:02,2.48,--,1628
2,|,242,70.1,177,03:39:17,00:03,2.48,--,1628
2,|,242,70.1,177,03:39:19,00:02,2.48,--,1624
2,|,242,70.1,179,03:39:21,00:02,2.61,--,1640
2,|,---,70.1,185,03:39:23,00:02,2.48,--,1634
2,|,242,70.1,179,03:39:26,00:02,2.48,--,1640
2,|,242,70.1,182,03:39:28,00:02,2.48,--,1640
2,|,---,70.1,177,03:39:30,00:02,2.61,--,1636
2,|,---,70.1,177,03:39:32,00:02,2.33,--,1627
2,|,242,70.1,174,03:39:35,00:03,2.33,--,1624
2,|,---,70.1,179,03:39:37,00:02,2.33,--,1640
2,|,242,70.1,177,03:39:39,00:02,2.33,--,1630
2,|,---,70.1,179,03:39:41,00:02,2.48,--,1643
2,|,---,70.1,185,03:39:44,00:03,2.61,--,1628
2,|,242,70.1,179,03:39:46,00:02,2.61,--,1634
2,|,---,70.3,177,03:39:48,00:02,2.33,--,1630
2,|,242,70.1,177,03:39:51,00:03,2.08,--,1625
2,|,---,70.3,177,03:39:53,00:02,2.33,--,1633
2,|,---,70.3,177,03:39:55,00:02,2.48,--,1625
2,|,242,70.1,177,03:39:58,00:02,2.48,--,1628
2,|,242,70.1,177,03:40:00,00:02,2.48,--,1631
2,|,242,70.1,182,03:40:02,00:02,2.48,--,1634
2,|,242,70.1,181,03:40:04,00:02,2.08,--,1636
2,|,242,70.1,177,03:40:06,00:02,2.33,--,1634
2,|,242,70.1,188,03:40:08,00:02,2.48,--,1640
2,|,242,70.3,177,03:40:11,00:03,2.48,--,1644
2,|,---,70.1,177,03:40:13,00:02,2.22,--,1631
2,|,---,70.3,177,03:40:16,00:03,2.33,--,1631
2,|,---,70.1,185,03:40:18,00:02,2.48,--,1626
2,|,242,70.3,177,03:40:21,00:02,2.33,--,1624
2,|,242,70.1,182,03:40:23,00:02,2.22,--,1634
2,|,---,70.1,177,03:40:26,00:03,2.33,--,1630
2,|,242,70.1,179,03:40:28,00:02,2.61,--,1628
2,|,---,70.1,179,03:40:30,00:02,2.48,--,1643
2,|,---,70.1,177,03:40:33,00:03,2.33,--,1621
2,|,---,70.3,177,03:40:35,00:02,2.48,--,1622
2,|,---,70.1,177,03:40:38,00:03,2.48,--,1630
2,|,242,70.1,182,03:40:40,00:02,2.48,--,1652
2,|,242,70.1,175,03:40:42,00:02,2.48,--,1640
2,|,---,70.1,177,03:40:44,00:02,2.33,--,1633
2,|,---,70.3,174,03:40:47,00:03,2.48,--,1631
2,|,---,70.3,174,03:40:49,00:02,2.48,--,1624
